<?xml version="1.0" standalone="no"?>
<!DOCTYPE svg PUBLIC "-//W3C//DTD SVG 1.1//EN" "http://www.w3.org/Graphics/SVG/1.1/DTD/svg11.dtd" >
<svg xmlns="http://www.w3.org/2000/svg">
<metadata></metadata>
<defs>
<font id="merriweatherregular" horiz-adv-x="1256" >
<font-face units-per-em="2048" ascent="1638" descent="-410" />
<missing-glyph horiz-adv-x="509" />
<glyph horiz-adv-x="0" />
<glyph unicode="&#xd;" horiz-adv-x="0" />
<glyph unicode=" "  horiz-adv-x="509" />
<glyph unicode="&#x09;" horiz-adv-x="509" />
<glyph unicode="&#xa0;" horiz-adv-x="509" />
<glyph unicode="!" horiz-adv-x="706" d="M215 101q0 31 13.5 58t34.5 46.5t47.5 30.5t53.5 11q66 0 96.5 -36.5t30.5 -87.5q0 -33 -13 -60t-34 -45.5t-48 -29t-55 -10.5q-24 0 -47 8.5t-40.5 24t-28 38.5t-10.5 52zM215 1780h256l-73 -1290h-118z" />
<glyph unicode="&#x22;" horiz-adv-x="1140" d="M270 1782h220l-52 -746h-116zM709 1782h220l-52 -746h-116z" />
<glyph unicode="#" horiz-adv-x="1427" d="M149 365v128h226l31 405h-235v127h242l27 330h165l-25 -330h314l27 330h165l-25 -330h219v-127h-226l-32 -405h223q0 -32 0.5 -64t0.5 -64h-229l-30 -365h-160l24 365h-315l-32 -365h-162l28 365h-221zM541 493h315l31 405h-314z" />
<glyph unicode="$" horiz-adv-x="1164" d="M94 61v322h86l65 -194q33 -38 72.5 -59t82.5 -32t88 -13.5t89 -2.5q51 0 105 14t98 45t72 80t28 119q0 66 -33 119t-87 97.5t-123 84t-140.5 79t-140.5 82t-123 94t-87 114.5t-33 143q0 97 41.5 168t106 118.5t142.5 73.5t151 32l6 186h157l-7 -189q104 -9 175 -30 t107 -42v-277h-85l-78 192q-13 15 -37.5 26t-56.5 18.5t-69 11.5t-76 4q-41 0 -91.5 -12t-95.5 -41.5t-75.5 -78t-30.5 -121.5q0 -63 33 -113.5t87 -93t123 -80t141.5 -76t141.5 -80t123 -92.5t87 -114t33 -143q0 -98 -32.5 -171.5t-89 -124.5t-132 -81t-161.5 -40l-7 -214 h-157l7 210q-67 3 -131 11.5t-117 20.5t-93 25t-59 25z" />
<glyph unicode="%" horiz-adv-x="2111" d="M214 1053q0 90 27 158.5t73 116t106 72.5t125 27q79 3 136 -25.5t94 -78.5t54.5 -117.5t17.5 -143.5q0 -89 -27 -157.5t-73 -115t-105.5 -71t-124.5 -26.5q-71 -2 -127 27t-95 78.5t-60 116t-21 139.5zM374 1061q0 -57 10.5 -105.5t30 -84t48.5 -56t66 -20.5 q78 0 118.5 69t40.5 191q0 61 -10.5 110.5t-30 85t-48.5 55t-66 19.5q-39 0 -68.5 -18.5t-49.5 -53t-30.5 -83t-10.5 -109.5zM709 0l546 1601h159l-546 -1601h-159zM1274 525q0 90 27 158.5t73 116t106 72.5t125 27q79 3 136 -25.5t94 -78.5t54.5 -117.5t17.5 -143.5 q0 -89 -27 -157.5t-73 -115t-105.5 -71t-124.5 -26.5q-71 -2 -127 27t-95 78.5t-60 116t-21 139.5zM1434 533q0 -57 10.5 -105.5t30 -84t48.5 -56t66 -20.5q78 0 118.5 69t40.5 191q0 61 -10.5 110.5t-30 85t-48.5 55t-66 19.5q-39 0 -68.5 -18.5t-49.5 -53t-30.5 -83 t-10.5 -109.5z" />
<glyph unicode="&#x26;" horiz-adv-x="1601" d="M177 355q0 69 22 128t62 110t96.5 95t125.5 85q-32 43 -63.5 88.5t-57 94t-41 101.5t-15.5 111q0 92 29.5 163.5t81.5 120.5t122 74.5t150 25.5q90 0 155 -26t107 -70.5t62 -103t20 -123.5q0 -75 -30 -141.5t-77 -123t-105 -103t-114 -82.5q24 -30 57.5 -68.5t72 -81.5 t79.5 -88t80.5 -87t75 -79t62.5 -64q20 50 22.5 99t2.5 89q0 52 -6 93.5t-14 72t-16 49t-12 24.5h195q11 -38 22 -86t7 -109q-3 -56 -10 -101.5t-18.5 -84.5t-29 -73t-42.5 -67q45 -38 81.5 -61t67.5 -36t56.5 -17.5t48.5 -4.5v-85q-17 -11 -44 -17t-58 -7t-63.5 2t-61.5 10 q-39 8 -74.5 30.5t-77.5 58.5q-38 -28 -85 -50.5t-98 -38.5t-102.5 -24.5t-98.5 -8.5t-106.5 6.5t-120.5 22.5t-119 44t-103 71t-72.5 102.5t-27.5 140.5zM359 384q0 -74 32 -129.5t86 -92.5t123.5 -56t144.5 -19q88 0 157.5 18.5t118.5 66.5q-32 31 -72.5 72t-84.5 87 t-89 95t-87 96.5t-79.5 91t-64.5 79.5q-45 -32 -80 -64t-58 -68t-35 -79t-12 -98zM475 1233q0 -68 15.5 -123.5t39.5 -101t52.5 -81t53.5 -63.5q51 25 93.5 57t73.5 72.5t48.5 91.5t17.5 114q0 39 -9 83.5t-31.5 82.5t-61.5 63t-99 25q-30 0 -64 -11t-62.5 -36.5 t-47.5 -67.5t-19 -105z" />
<glyph unicode="'" horiz-adv-x="786" d="M279 1782h220l-52 -746h-116z" />
<glyph unicode="(" horiz-adv-x="889" d="M152 715q0 145 28.5 271.5t73 232.5t99.5 191t107.5 147t96.5 100t67 51l88 -52q-21 -14 -56 -48t-75.5 -88.5t-82 -129t-76.5 -169t-58.5 -209t-27.5 -248.5q-5 -149 15.5 -277t55.5 -234.5t79.5 -191t89.5 -147.5t84.5 -103.5t64.5 -58.5l-101 -62q-23 14 -67 49 t-96.5 93.5t-107.5 141.5t-99.5 192t-73 246t-28.5 303z" />
<glyph unicode=")" horiz-adv-x="889" d="M164 1646l101 62q23 -14 67 -49t96.5 -93.5t107.5 -141.5t99.5 -192t73 -246t28.5 -303q0 -145 -28.5 -271.5t-73 -232.5t-99.5 -191t-107.5 -147t-96.5 -100t-67 -51l-88 52q21 14 56 48t75.5 88.5t82 129t76.5 169t58.5 208.5t27.5 249q4 149 -16 277t-55 234.5 t-79.5 191t-89.5 147.5t-84.5 103.5t-64.5 58.5z" />
<glyph unicode="*" d="M130 1482l98 144l306 -238l59 -61l-23 100l-40 359q46 0 91.5 -0.5t91.5 -0.5l-39 -358l-28 -100l76 73l290 224l113 -143l-370 -166l-88 -31l88 -30l369 -188l-114 -137l-302 253l-61 61l24 -93l42 -382h-183l40 382l23 93l-55 -63l-307 -253l-100 141l360 189l81 27 l-79 27z" />
<glyph unicode="+" horiz-adv-x="1233" d="M160 710v173h220l159 -12l-7 161v228h167v-228l-7 -161l130 12h251v-173h-251l-130 9l7 -158v-240h-167v240l7 158l-159 -9h-220z" />
<glyph unicode="," horiz-adv-x="733" d="M150 -474q31 12 64 44t60.5 75t45.5 93t18 98q0 38 -13 72.5t-34.5 61.5t-49 44.5t-56.5 20.5v45l122 155q59 -15 100.5 -52t67.5 -83.5t37.5 -96.5t11.5 -90q0 -85 -29 -160.5t-75 -137.5t-102.5 -107.5t-111.5 -69.5l-56 52v36z" />
<glyph unicode="-" horiz-adv-x="1205" d="M160 727v147h885v-147h-885z" />
<glyph unicode="." horiz-adv-x="706" d="M215 101q0 31 13.5 58t34.5 46.5t47.5 30.5t53.5 11q66 0 96.5 -36.5t30.5 -87.5q0 -33 -13 -60t-34 -45.5t-48 -29t-55 -10.5q-24 0 -47 8.5t-40.5 24t-28 38.5t-10.5 52z" />
<glyph unicode="/" horiz-adv-x="715" d="M-20 -363l573 1962h183l-573 -1962h-183z" />
<glyph unicode="0" horiz-adv-x="1368" d="M151 632q2 145 47.5 260t121.5 194.5t174.5 122t206.5 43.5q146 1 245 -47.5t159.5 -133.5t86 -200.5t24.5 -247.5q-1 -144 -43.5 -264t-115.5 -205.5t-171 -133.5t-210 -48q-95 0 -171.5 25t-135 69.5t-100.5 106.5t-68.5 135.5t-38.5 155.5t-11 168zM356 641 q0 -107 19.5 -207.5t60 -179t102 -127t146.5 -50.5q90 -2 152.5 34t101 105.5t56 170t17.5 227.5q0 112 -18.5 208.5t-58 168t-100.5 112.5t-146 43q-90 1 -153 -33t-103 -99t-58 -159.5t-18 -213.5z" />
<glyph unicode="1" horiz-adv-x="902" d="M85 0v85l301 27v912l-272 -53l-20 99q30 9 71 24t85.5 33t89.5 38.5t83 39t66.5 34t40.5 25.5l52 -15l-3 -1137l293 -27v-85h-787z" />
<glyph unicode="2" horiz-adv-x="1231" d="M137 79q127 82 241 177t199.5 195.5t136 202.5t50.5 198q0 48 -13 97.5t-43 89.5t-78 65.5t-118 25.5q-50 0 -97 -14.5t-89 -36.5t-76.5 -47.5t-58.5 -47.5l-47 76q28 36 72.5 72.5t100.5 65.5t123 47t140 18q101 0 175 -29.5t122 -78t71.5 -110.5t23.5 -127 q0 -105 -42 -209.5t-118.5 -205t-183 -196.5t-235.5 -183l539 37l96 142l86 -28l-65 -275h-883z" />
<glyph unicode="3" horiz-adv-x="1085" d="M94 1109q25 24 64 52t92 52t120 40t147 16q69 0 133.5 -18t115 -57t81 -101.5t30.5 -150.5q0 -60 -26.5 -122.5t-70.5 -117t-101 -96t-118 -60.5q104 0 180 -24t125 -68t72.5 -105.5t23.5 -134.5q0 -77 -26 -152.5t-75.5 -142t-121 -120t-161.5 -87t-197 -43t-228 12.5 q0 28 -0.5 55t-0.5 55q83 -15 160.5 -11t145.5 25t124.5 56t97 82t63 102.5t22.5 117.5q0 72 -16.5 129.5t-55.5 98t-103 62.5t-158 22l-144 -34v134q79 16 150 44.5t125 68t86 88t33 105.5q1 66 -17.5 113t-50 77.5t-74 45t-88.5 14.5q-55 0 -99 -9t-80.5 -24.5t-67 -35.5 t-58.5 -42z" />
<glyph unicode="4" d="M62 94q78 142 155 277.5t153.5 277t153 294.5t154.5 330h63l118 -88l-554 -966l-72 -102l494 28l3 469l176 40v-499l267 15v-170h-267v-376h-181l2 376h-634z" />
<glyph unicode="5" horiz-adv-x="1079" d="M151 566l79 671h561l111 12l-49 -177h-477l-72 -415q140 49 262 44.5t212 -57t142 -150.5t52 -235q0 -70 -23 -142.5t-67 -140.5t-106.5 -127.5t-141.5 -104t-172.5 -70t-199.5 -25.5q-25 0 -51 3t-52 11q0 28 0.5 55t0.5 55q72 -9 145 2t140.5 37.5t126 68.5t102 96.5 t68.5 119.5t25 139q0 133 -47 211t-127 111t-185.5 25t-221.5 -47z" />
<glyph unicode="6" horiz-adv-x="1272" d="M124 563q0 129 35.5 245.5t97 218t145 186.5t178.5 150t198 108.5t204 62.5l41 -84q-163 -53 -290.5 -139t-216 -191.5t-136.5 -222t-52 -230.5q-4 -111 8 -216t49.5 -187t104 -131.5t171.5 -49.5q76 0 131 33.5t90.5 86.5t52.5 118t17 128q0 95 -19 168t-52 122t-78 74 t-98 25q-32 0 -62.5 -5.5t-57 -14t-47.5 -19.5t-34 -21l-44 79q19 22 50 42t70 35.5t84 24.5t93 9q96 0 167.5 -39t119 -101t71 -140.5t23.5 -157.5q0 -64 -15 -130t-45 -127t-73.5 -114.5t-100 -93.5t-126 -63t-150.5 -23q-119 0 -213 47.5t-158.5 128t-98.5 186t-34 222.5 z" />
<glyph unicode="7" d="M169 927l53 326h888l35 -39l-607 -1530l-198 70l640 1357l-618 -15l-94 -179z" />
<glyph unicode="8" d="M126 373q0 56 19.5 112.5t58.5 109.5t98 101.5t137 87.5q-50 34 -93 73t-74.5 85.5t-50 101.5t-18.5 121q0 99 39 172t102.5 120.5t144.5 70.5t164 23q86 0 160.5 -24.5t130 -69.5t87 -109t31.5 -142q0 -56 -19.5 -116.5t-56 -117.5t-87.5 -105.5t-114 -80.5 q66 -40 127.5 -82t109 -88.5t76.5 -99t30 -113.5q1 -113 -42.5 -194t-115 -134t-161.5 -78t-180 -25q-58 0 -118 10.5t-116 31.5t-105 53.5t-85.5 77.5t-57.5 101.5t-21 126.5zM310 420q0 -71 24 -134t69 -110t110 -74.5t148 -27.5q52 0 104.5 18.5t94.5 52t68 81.5t26 107 q0 67 -37 119.5t-97 98t-135 86.5t-151 86q-45 -21 -85.5 -52t-71 -69.5t-49 -84.5t-18.5 -97zM361 1198q0 -53 26 -100t70.5 -89t102 -81.5t120.5 -77.5q42 11 81 41.5t68.5 71t48 87.5t20.5 92q3 70 -16 128t-53.5 99t-83 63.5t-103.5 22.5q-53 0 -103 -18t-90 -51.5 t-64 -81t-24 -106.5z" />
<glyph unicode="9" d="M124 703q0 64 15 130t45 127t73.5 114.5t100 93.5t126 63t150.5 23q119 0 210.5 -47.5t153 -128t93 -186t31.5 -222.5q0 -136 -34.5 -263.5t-95 -240.5t-141.5 -209.5t-175 -170.5t-196 -123t-203 -68h-2l-36 86q109 35 200.5 91.5t166 128t131.5 154t96 169.5t60.5 174 t24.5 168q4 111 -5.5 216t-44 187t-98.5 131.5t-169 49.5q-76 0 -131 -33.5t-90.5 -86.5t-52.5 -118t-17 -128q0 -95 19 -168t52 -122t78 -74t98 -25q32 0 62.5 5.5t57 14t47.5 19t34 21.5l44 -79q-19 -22 -50 -42t-70 -35.5t-84 -24.5t-93 -9q-96 0 -167.5 39t-119 101 t-71 140.5t-23.5 157.5z" />
<glyph unicode=":" horiz-adv-x="706" d="M215 101q0 31 13.5 58t34.5 46.5t47.5 30.5t53.5 11q66 0 96.5 -36.5t30.5 -87.5q0 -33 -13 -60t-34 -45.5t-48 -29t-55 -10.5q-24 0 -47 8.5t-40.5 24t-28 38.5t-10.5 52zM215 911q0 31 13.5 58t34.5 46.5t47.5 30.5t53.5 11q66 0 96.5 -36.5t30.5 -87.5q0 -33 -13 -60 t-34 -45.5t-48 -29t-55 -10.5q-24 0 -47 8.5t-40.5 24t-28 38.5t-10.5 52z" />
<glyph unicode=";" horiz-adv-x="772" d="M189 -474q31 12 64 44t60.5 75t45.5 93t18 98q0 38 -13 72.5t-34.5 61.5t-49 44.5t-56.5 20.5v45l122 155q59 -15 100.5 -52t67.5 -83.5t37.5 -96.5t11.5 -90q0 -85 -29 -160.5t-75 -137.5t-102.5 -107.5t-111.5 -69.5l-56 52v36zM215 911q0 31 13.5 58t34.5 46.5 t47.5 30.5t53.5 11q66 0 96.5 -36.5t30.5 -87.5q0 -33 -13 -60t-34 -45.5t-48 -29t-55 -10.5q-24 0 -47 8.5t-40.5 24t-28 38.5t-10.5 52z" />
<glyph unicode="&#x3c;" horiz-adv-x="1519" d="M200 684v134l969 495v-183l-799 -379l799 -377v-184z" />
<glyph unicode="=" horiz-adv-x="1205" d="M160 555v147h885v-147h-885zM160 892v147h885v-147h-885z" />
<glyph unicode="&#x3e;" horiz-adv-x="1519" d="M350 190v183l799 378l-799 378v184l969 -494v-134z" />
<glyph unicode="?" horiz-adv-x="1012" d="M160 1637v152q8 10 27.5 18.5t45.5 14.5t56.5 9.5t60.5 3.5q125 0 221 -30t166 -81t116 -117.5t71.5 -139t32 -146t-2.5 -138.5q0 -37 -30 -68t-76 -59t-100.5 -53.5t-104 -51.5t-86 -53.5t-46.5 -58.5q-6 -41 1.5 -83t23 -86t35 -89t36.5 -91h-105q-24 18 -54.5 58 t-58.5 88.5t-48 100t-23 93.5q-2 42 31.5 76.5t85.5 64t113.5 55t116.5 49.5t94.5 47t47.5 47q4 65 -12.5 127t-48 116.5t-77 100t-100.5 78t-117 50.5t-127 18q-19 0 -42 -1t-45.5 -3.5t-43 -7t-34.5 -10.5zM449 101q0 31 13.5 58t34.5 46.5t47.5 30.5t53.5 11 q66 0 96.5 -36.5t30.5 -87.5q0 -33 -13 -60t-34 -45.5t-48 -29t-55 -10.5q-24 0 -47 8.5t-40.5 24t-28 38.5t-10.5 52z" />
<glyph unicode="@" horiz-adv-x="2133" d="M223 416q0 156 36.5 292.5t102 250t156.5 202.5t200 150.5t232 94t253 32.5q144 0 269 -43t217.5 -123.5t145.5 -196.5t53 -263q0 -137 -24.5 -248t-66.5 -197t-96.5 -148t-114.5 -102.5t-122 -59.5t-117 -19q-23 0 -43.5 8.5t-36.5 27t-26.5 48t-14.5 72.5 q-5 40 0 103.5t22 167.5q-32 -81 -75 -160t-94 -141t-107 -100.5t-114 -38.5q-46 0 -91.5 27.5t-81.5 80t-58.5 127.5t-22.5 170q0 64 13.5 135.5t40.5 140.5t65.5 132t89.5 111t112.5 76.5t133.5 28.5q25 0 58.5 -3t68.5 -9t69 -15.5t60 -23.5q6 18 16 34t29 12 q14 -5 29 -10l30 -10t29.5 -10t29.5 -10q-12 -54 -24 -130t-22.5 -159t-20 -167t-17.5 -155q-6 -53 -6.5 -97.5t4 -76.5t13 -50t20.5 -18q29 0 64.5 20.5t71.5 58t70 90t60 117t42 138.5t16 155q0 107 -24.5 191t-68 147.5t-103 108t-129 72.5t-146 40.5t-154.5 12.5 q-99 0 -194 -24t-178.5 -70.5t-153.5 -116.5t-121 -161.5t-79 -205t-28 -247.5t26.5 -240t74 -186t113.5 -136.5t146 -92t170.5 -52t187.5 -16.5q44 0 94.5 5.5t98 14.5t88 20.5t65.5 23.5l37 -85q-33 -26 -85 -47.5t-113.5 -36.5t-129 -23.5t-131.5 -8.5 q-171 0 -315.5 55.5t-249.5 158.5t-164.5 250t-59.5 330zM761 506q0 -25 2 -58t7 -68t14.5 -68.5t25 -60t37.5 -42.5t53 -16q33 0 72 32t78.5 85t76.5 121.5t68 140.5t52.5 142t28.5 127q-15 16 -41.5 28.5t-57 21t-61 12.5t-54.5 4q-83 0 -140.5 -32.5t-93 -88t-51.5 -128 t-16 -152.5z" />
<glyph unicode="A" horiz-adv-x="1502" d="M2 0v85l140 29l525 1397h182l483 -1396l169 -30v-85h-548v85l162 30l-105 322h-589l-111 -322l170 -30v-85h-478zM462 554h510l-152 468l-95 291z" />
<glyph unicode="B" horiz-adv-x="1415" d="M102 0v85l169 30v1281l-165 17v98h253q67 1 157 7q77 5 174 5h37q120 -1 212.5 -18.5t154.5 -55t94 -95t32 -137.5q0 -69 -17.5 -131t-53.5 -112t-91 -86t-130 -53q82 -1 154 -28.5t125 -77t84 -119t31 -154.5q0 -101 -39.5 -187t-120 -149t-202 -98.5t-286.5 -35.5 q-43 0 -88 1.5t-87 3.5t-79 4.5t-63 4.5h-255zM466 135q13 -8 42.5 -15.5t65.5 -12.5t74.5 -8t70.5 -3q82 0 154 17t125.5 55t84.5 99.5t31 150.5q0 173 -94.5 252.5t-282.5 79.5h-71h-36h-36q-36 0 -68.5 -1t-59.5 -4v-610zM466 879q25 -5 56.5 -6.5t64 -2t64 0.5t56.5 1 q76 0 137 19.5t103.5 58.5t65.5 96.5t23 133.5q0 70 -26.5 115.5t-73.5 72.5t-110.5 37.5t-138.5 10.5h-49h-30h-32q-32 0 -61.5 -3t-46.5 -10z" />
<glyph unicode="C" horiz-adv-x="1441" d="M110 724q0 129 30 238.5t84 199t129 158t164.5 115t190.5 70t208 23.5q72 0 134 -8.5t114 -20t94 -23.5t75 -19l-16 -290h-106l-52 167q-32 21 -64 36t-68.5 24.5t-79 13.5t-94.5 4q-107 0 -204.5 -38t-172 -115.5t-118.5 -195.5t-44 -277q0 -142 35.5 -270.5t106 -226 t174.5 -155t241 -57.5q121 0 196 31.5t120 88.5l58 154q23 0 44.5 -0.5t44.5 -0.5v-287q-36 -2 -79.5 -16t-103.5 -31t-139.5 -30.5t-186.5 -13.5q-155 0 -286 55t-226.5 154.5t-149 237.5t-53.5 305z" />
<glyph unicode="D" horiz-adv-x="1591" d="M102 0v85l169 29v1281l-165 18v98h263q63 0 113.5 1.5t95.5 4t86.5 4.5t86.5 2q360 0 549 -178.5t189 -527.5q0 -197 -61 -351.5t-167.5 -261.5t-250.5 -162q-137 -52 -294 -52h-17q-72 2 -151 6.5t-176 4.5q-68 0 -135 -0.5t-135 -0.5zM466 132q62 -18 128 -26 q52 -6 110 -6h30q110 3 209.5 47t175.5 128t120.5 207.5t44.5 285.5q0 159 -39 281t-115 204t-186 123q-101 37 -228 37h-25q-38 -1 -65 -2t-51.5 -3.5t-50 -5.5t-58.5 -9v-1261z" />
<glyph unicode="E" horiz-adv-x="1351" d="M102 0v85l169 30v1280l-165 18v98h1014l29 -286h-110l-46 168l-528 13v-539l396 7l30 157h102v-430h-102l-30 153l-396 6v-652l560 19l100 207l97 -24l-45 -310h-1075z" />
<glyph unicode="F" horiz-adv-x="1249" d="M100 0v85l171 29v1282l-165 17v98h1044l19 -285l-100 -2l-46 163l-558 14v-554l435 9l40 145h98v-420h-111l-26 151l-436 8v-625l289 -20v-95h-654z" />
<glyph unicode="G" horiz-adv-x="1579" d="M114 724q0 193 64 343t173.5 252.5t255 155.5t309.5 53q94 0 167.5 -7.5t129.5 -18t96 -21.5t66 -17l-16 -290h-106l-52 167q-8 10 -33.5 22.5t-68.5 24t-105 18.5q-53 6 -121 6h-20q-107 -2 -204 -41.5t-170.5 -117.5t-117 -194.5t-43.5 -272.5q0 -91 14.5 -178.5 t43.5 -166t73.5 -145.5t104 -115.5t135 -76t166.5 -27.5q43 0 89 4.5t90 16t83 32t69 53.5v410l-243 17v98h561v-98l-123 -18v-511q-33 -2 -92.5 -19t-136 -37t-164.5 -36.5t-179 -16.5q-155 0 -283 56.5t-219.5 157t-142 238t-50.5 300.5z" />
<glyph unicode="H" horiz-adv-x="1698" d="M102 0v85l169 30v1280l-165 18v98h523v-98l-163 -17v-582h767v582l-165 17v98h523v-98l-164 -17v-1281l172 -30v-85h-538v85l172 29v582h-767v-581l172 -30v-85h-536z" />
<glyph unicode="I" horiz-adv-x="764" d="M105 0v85l179 29v1282l-175 17v98h543v-98l-173 -18v-1280l182 -30v-85h-556z" />
<glyph unicode="J" horiz-adv-x="739" d="M-70 -310q112 36 191 95.5t117 155.5q15 44 24 92.5t14 105t6.5 121t1.5 141.5v995l-165 17v98h523v-98l-163 -18v-845q0 -71 1 -138v-45q0 -44 -1 -87q-1 -63 -5 -121t-14 -110q-20 -99 -70.5 -175t-117.5 -129.5t-143 -85t-147 -40.5z" />
<glyph unicode="K" horiz-adv-x="1421" d="M102 0v85l169 29v1282l-165 17v98h523v-98l-163 -18v-667l601 668l-151 17q0 25 -0.5 49t-0.5 49h483v-98l-148 -18l-489 -515q22 -23 55.5 -68t73.5 -103.5t84.5 -125.5t88.5 -133.5t86 -127.5t77 -107.5t61 -73.5t39 -26l107 -30v-85h-264q-13 0 -35.5 25.5t-52.5 69 t-65.5 101t-73.5 120.5t-77.5 128.5t-77 125.5t-72.5 110t-64 83l-185 -195v-454l222 -29v-85h-586z" />
<glyph unicode="L" horiz-adv-x="1240" d="M102 0v85l169 30v1270l-165 17v109h538v-109l-177 -17l-2 -1273l535 24l123 238l87 -43l-65 -331h-1043z" />
<glyph unicode="M" horiz-adv-x="1984" d="M59 0v85l172 29l87 1271l-195 17v109h468l291 -811l83 -237l43 -149l53 153l351 1043h441v-108l-187 -17l87 -1270l171 -30v-85h-536v85l165 30l-48 770q-2 31 -4.5 61.5t-3.5 61.5l-10 346l-41 -163l-428 -1206h-67l-364 933l-45 119q-29 81 -56 163t-55 164l-8 -342 l-37 -907l191 -30v-85h-518z" />
<glyph unicode="N" horiz-adv-x="1670" d="M100 0v85l171 30v1270l-165 17v109h356l672 -1053l138 -272v1199l-164 17v108h473v-108l-166 -17v-1385h-198q-152 235 -300 468t-300 468l-67 84l-136 261v-1166l194 -30v-85h-508z" />
<glyph unicode="O" horiz-adv-x="1554" d="M86 742q4 189 61.5 334.5t154.5 245.5t225 153t273 57h21q143 0 260 -50q125 -54 211.5 -155t131.5 -241q42 -131 42 -287v-21q-4 -189 -59.5 -337.5t-149.5 -251.5t-219.5 -158.5t-267.5 -58.5h-16q-149 0 -270 54q-128 57 -217.5 160.5t-136.5 245.5q-44 134 -44 290 v20zM302 743q0 -86 14.5 -168.5t42.5 -156.5t69.5 -136.5t95.5 -108t120 -71t143 -25.5q110 0 196 47.5t145.5 137.5t90.5 220t31 295q0 86 -13 167.5t-39 153.5t-65 132t-90.5 103.5t-115.5 68t-140 24.5q-113 0 -202.5 -45t-152.5 -132t-96.5 -214t-33.5 -292z" />
<glyph unicode="P" horiz-adv-x="1304" d="M82 0v85l189 30v1270l-165 17v109h263q24 0 64 3.5t88.5 7t101 7t102.5 3.5q115 0 211 -16.5t165 -63.5t107.5 -130.5t38.5 -218.5q0 -81 -22.5 -151t-62.5 -127t-95 -101t-119 -73t-136 -43q-63 -13 -126 -13h-18q-51 1 -88 1h-35q-47 -1 -79 -6v-475l267 -30v-85h-651z M466 708q57 -8 105.5 -9.5t93.5 -1.5q48 0 95.5 6.5t90 23t79 45t63 73.5t41.5 107.5t15 147.5q0 92 -26.5 155t-77.5 101.5t-125 53.5q-59 12 -132 12q-19 0 -39 -1q-49 -2 -93.5 -5t-89.5 -14v-694z" />
<glyph unicode="Q" horiz-adv-x="1565" d="M86 742q4 189 61.5 334.5t154.5 245.5t225 153t273 57h21q144 0 260 -50q125 -55 211.5 -155.5t131.5 -240.5q42 -131 42 -287v-21q-3 -157 -42.5 -286t-107.5 -227.5t-160 -165.5t-201 -99q24 -63 73 -100.5t110 -57.5t126 -26t121 -6q42 0 86 8t73 25l18 -123 q-11 -15 -33 -29t-53.5 -24.5t-71 -16.5t-85.5 -6q-77 0 -150.5 14.5t-136 52t-110.5 102t-75 165.5q-37 -4 -77 -6h-16q-148 0 -270 54q-128 57 -217.5 160.5t-136.5 245.5q-44 134 -44 290v20zM302 743q0 -86 14.5 -168.5t42.5 -156.5t69.5 -136.5t95.5 -108t120 -71 t143 -25.5q110 0 196 47.5t145.5 137.5t90.5 220t31 295q0 86 -13 167.5t-39 153.5t-65 132t-90.5 103.5t-115.5 68t-140 24.5q-113 0 -202.5 -45t-152.5 -132t-96.5 -214t-33.5 -292z" />
<glyph unicode="R" horiz-adv-x="1441" d="M82 0v85l189 30v1270l-165 17v109h263q48 0 124 6t176 6q77 0 145.5 -5t127 -19t105.5 -39.5t80 -66.5t50.5 -100t17.5 -140q0 -78 -24.5 -147t-68.5 -125.5t-105.5 -99.5t-136.5 -69l10 -4l10 -4q47 -24 93.5 -74.5t90 -113.5t84.5 -131t78 -125.5t68.5 -97.5t57.5 -47 l107 -30v-85h-289q-19 0 -43 30t-52 78.5t-60 111t-67 126.5t-73.5 125t-78.5 107q-42 48 -84 74q-37 23 -74 23q-6 0 -12 -1l95 73q21 -9 40 -14t36 -8t32.5 -6t30.5 -7q-17 -6 -34 -11t-34 -9q-55 -13 -132.5 -16.5t-193.5 -3.5v-558l207 -29v-85h-591zM466 785 q12 -2 35.5 -3t49.5 -1.5t51 -1t41 -0.5q80 0 144.5 20t109.5 62.5t69.5 109t24.5 159.5q0 77 -17 133t-57 92q-40 35 -107 51q-53 12 -127 13q-19 0 -40 -1q-49 -2 -94 -3.5t-83 -12.5v-617z" />
<glyph unicode="S" horiz-adv-x="1221" d="M124 61v322h88l63 -199q30 -31 69 -51.5t82.5 -32.5t90 -17t90.5 -5q55 0 109 15t97 46.5t70 81t27 119.5q0 66 -33 118t-87 95.5t-123 81t-140.5 75.5t-140.5 79t-123 91t-87 112.5t-33 142.5q0 70 22.5 126.5t60.5 100t88 74.5t105 51.5t110.5 30t105.5 9.5 q73 0 134.5 -7t110.5 -18.5t84.5 -25t57.5 -26.5v-277h-85l-78 192q-18 16 -43.5 28t-57 20t-67 11.5t-71.5 3.5q-41 0 -91.5 -13t-95.5 -42.5t-75.5 -78.5t-30.5 -122q0 -63 33 -112.5t87 -90.5t123 -77t141.5 -72.5t141.5 -76.5t123 -89.5t87 -111.5t33 -142 q0 -112 -42 -192t-113 -131.5t-164.5 -75.5t-196.5 -24q-75 0 -147.5 8t-134 20.5t-107.5 27.5t-67 28z" />
<glyph unicode="T" horiz-adv-x="1270" d="M30 1207l25 304h1191l-2 -307l-82 -9l-52 186l-369 20v-1286l264 -30v-85h-701v85l242 30v1285l-355 -20l-70 -171z" />
<glyph unicode="U" horiz-adv-x="1640" d="M63 1413v98h533v-98l-179 -19v-758q0 -169 34.5 -277.5t95.5 -171.5t144 -87.5t181 -24.5q105 0 180.5 40t123.5 116t70.5 185.5t22.5 249.5l-2 728l-182 19v98h491v-98l-159 -19l-2 -727q0 -186 -42 -317.5t-118 -215.5t-182 -123t-234 -39q-170 0 -288 41t-191.5 124.5 t-106 209t-32.5 294.5q0 193 0.5 378t0.5 376z" />
<glyph unicode="V" horiz-adv-x="1456" d="M1 1413v98h537v-98l-179 -18l341 -982l69 -218l67 227q17 58 33 116t34 116l222 742l-160 17v97h481v-97l-152 -17l-480 -1416h-150l-531 1416z" />
<glyph unicode="W" horiz-adv-x="2123" d="M15 1412v99h535v-99l-188 -17l312 -987q15 -49 30 -97t31 -97l62 182l214 830l-57 170l-163 16v99h545v-99l-174 -16l272 -1008l49 -191l51 229l260 970l-172 16v99h484v-99l-148 -16l-427 -1416h-161l-286 995l-285 -995h-164l-489 1416z" />
<glyph unicode="X" horiz-adv-x="1468" d="M39 0v85l177 29l420 652l-398 630l-148 17v98h561v-98l-177 -17l288 -505l312 506l-152 16v98h472v-98l-142 -16l-417 -578l430 -704l164 -30v-85h-575v85l187 30l-334 562l-311 -562l192 -30v-85h-549z" />
<glyph unicode="Y" horiz-adv-x="1312" d="M-15 1413v98h503v-98l-153 -18l307 -550l42 -131l56 139l284 543l-153 17v98h456v-98l-136 -28l-436 -758v-511l214 -31v-85h-613v85l204 31v525l-450 754z" />
<glyph unicode="Z" horiz-adv-x="1427" d="M92 89l874 1193l115 115l-735 -24l-95 -222l-107 19l32 341h1100l28 -86l-864 -1193l-94 -115l733 32l157 235l99 -24l-91 -360h-1126z" />
<glyph unicode="[" horiz-adv-x="889" d="M164 60v1426q0 74 8 122.5t29 77t58 40t95 11.5q41 0 75.5 -4t66 -10t61.5 -14t62 -16q0 -22 -0.5 -43t-0.5 -43h-291v-1666l291 -2q0 -22 0.5 -43t0.5 -43q-32 -9 -62 -17t-61.5 -14t-66 -9.5t-75.5 -3.5q-58 0 -95 11.5t-58 40t-29 77t-8 122.5z" />
<glyph unicode="\" horiz-adv-x="715" d="M-20 1599h183l573 -1962h-183z" />
<glyph unicode="]" horiz-adv-x="889" d="M270 -145q0 22 0.5 43t0.5 43h291v1666h-291q0 22 -0.5 44t-0.5 44q32 9 62 17t61.5 14t66 9.5t75.5 3.5q58 0 95 -11.5t58 -40t29 -77t8 -122.5v-1426q0 -74 -8 -122.5t-29 -77t-58 -40t-95 -11.5q-41 0 -75.5 4t-66 10t-61.5 14t-62 16z" />
<glyph unicode="^" horiz-adv-x="1247" d="M138 564l383 967h197l384 -967q-44 0 -87.5 -0.5t-87.5 -0.5l-317 763l-317 -763q-39 0 -77.5 0.5t-77.5 0.5z" />
<glyph unicode="_" horiz-adv-x="1063" d="M-20 -192h1103v-147h-1103v147z" />
<glyph unicode="`" horiz-adv-x="740" d="M61 1661l146 149l324 -416l-53 -54q-41 19 -100 54.5t-119.5 79t-114 92.5t-83.5 95z" />
<glyph unicode="a" horiz-adv-x="1108" d="M98 322q8 70 46 122.5t94 90.5t124.5 63t137 40t132.5 21t111 6v87q0 79 -21 128.5t-58 77.5t-87 38t-108 10q-59 0 -133 -19t-145 -54l-37 90q37 30 88 52t104.5 36.5t105.5 21t91 6.5q79 0 150.5 -16.5t125.5 -58t85.5 -112t31.5 -179.5l-2 -688h128v-66 q-35 -19 -86.5 -31t-103.5 -12q-18 0 -39 2.5t-38.5 12.5t-29 31t-11.5 58l1 31q-50 -57 -136.5 -96t-215.5 -39q-86 0 -147 29.5t-98 77.5q-38 49 -53 111q-10 41 -10 83q0 22 3 45zM292 318q0 -59 18.5 -100t50.5 -66.5t75 -37t92 -11.5q30 0 61 8t59.5 20t53 27.5 t39.5 30.5q0 94 0.5 186.5t1.5 186.5q-42 0 -92 -4.5t-100 -15.5t-97 -29t-83 -45.5t-57.5 -64.5t-21.5 -85z" />
<glyph unicode="b" horiz-adv-x="1272" d="M32 1502v87l323 36l40 -17v-584q27 23 59.5 46t72 41.5t87.5 30t106 11.5q84 0 164 -29.5t142 -95t100 -169.5t38 -254q0 -128 -41 -243t-115.5 -201.5t-179 -137.5t-230.5 -51q-71 0 -137.5 8t-120 20t-90.5 25.5t-47 24.5v1416zM395 158q16 -42 77.5 -61.5t148.5 -19.5 q65 0 127.5 29t112 89t80 153t32.5 221v16q-1 110 -27 189q-28 85 -75 138t-107.5 77.5t-123.5 24.5q-44 0 -81.5 -9t-68 -23t-55 -30.5t-40.5 -31.5v-762z" />
<glyph unicode="c" horiz-adv-x="1041" d="M84 538v6q0 134 42 243q42 111 116 190t174 123t215 49h24q30 1 61 -1q43 -2 81 -9t69.5 -17t51.5 -23v-240h-95l-51 126q-16 13 -36.5 22t-42 15t-43 8.5t-39.5 2.5q-67 0 -128.5 -25t-109 -75.5t-76 -127t-29.5 -179.5v-8q0 -131 32 -225q33 -97 86 -158.5t118 -90 t128 -28.5q39 0 78 5t74.5 13t66 19.5t51.5 23.5l34 -89q-29 -26 -71 -46t-91.5 -34t-105 -21.5t-112.5 -7.5q-112 0 -199.5 42t-147.5 117t-92 177.5t-33 222.5z" />
<glyph unicode="d" horiz-adv-x="1272" d="M103 541q0 134 45 246.5t123 193.5t183.5 126.5t226.5 45.5q53 0 103 -7t86 -19v333l-213 36v87l360 42l45 -23v-1517h135v-75q-17 -9 -42.5 -17t-54 -14t-58 -9t-55.5 -3q-18 0 -37.5 2.5t-35.5 12.5t-26.5 31t-10.5 58v25q-15 -17 -44 -38t-72 -39t-98.5 -30.5 t-122.5 -12.5q-84 0 -163 33.5t-139.5 103t-97.5 176t-37 252.5zM294 590v-17q0 -112 25 -196q27 -90 72.5 -148.5t104.5 -87t121 -28.5q32 0 59.5 3.5t51.5 9.5q49 12 84 32t58 43v765q-11 13 -27 27t-41.5 26t-61 19.5t-83.5 7.5q-38 0 -79 -9.5t-81 -31.5t-76 -57 t-64 -85.5t-45 -118t-18 -154.5z" />
<glyph unicode="e" horiz-adv-x="1155" d="M109 556q0 128 40.5 236t113 187t174.5 124.5t225 48.5h12q81 0 147 -26q71 -28 121 -81.5t78.5 -131.5t32.5 -177q1 -19 1 -37q0 -40 -4 -72q-4 -46 -9 -82h-741v-11.5t1 -11.5q4 -121 41 -200t92.5 -125.5t122.5 -65t131 -18.5q39 0 82 4.5t83.5 13t75 19.5t55.5 23 l37 -85q-29 -26 -75.5 -47t-101.5 -35.5t-115 -22t-117 -7.5q-121 0 -214.5 41.5t-157.5 117t-97.5 182.5t-33.5 239zM302 663h547q2 34 2 68q-1 17 -1 35q-2 52 -12.5 98t-33 84.5t-60.5 62.5q-26 17 -59 25.5t-75 8.5q-56 0 -108.5 -21t-94 -67t-69.5 -118.5t-36 -175.5z " />
<glyph unicode="f" horiz-adv-x="842" d="M95 1005v76l220 59v62q0 74 18.5 139.5t50 119.5t73 96.5t87 71.5t92.5 44.5t89 15.5q68 0 100 -6t43 -11v-170q-14 8 -62.5 19.5t-120.5 11.5q-41 0 -73.5 -7t-56 -32.5t-36 -75t-12.5 -134.5v-144h302v-135h-302v-900l230 -20v-85h-623v85l201 22v898h-220z" />
<glyph unicode="g" horiz-adv-x="1211" d="M126 -245q0 54 17.5 99.5t43.5 81.5t57 62t58 42q-41 16 -62 37t-29 44.5t-8 46.5v44q0 17 8.5 43.5t24 57t37.5 62.5t49 59q-85 44 -135.5 123t-50.5 197q0 103 39.5 179t104 126t146.5 75t166 27h15q80 0 151 -19q77 -21 135 -68q26 24 67.5 41.5t102.5 17.5h114v-148 h-26h-51t-65 0.5t-68 0.5q22 -39 34 -87.5t12 -107.5q0 -99 -36.5 -175.5t-98 -128.5t-142 -79t-168.5 -27q-48 0 -92.5 6t-85.5 20q-11 -32 -13 -66t-2 -52q0 -44 8 -69t39.5 -37.5t95.5 -15.5t175 -3q93 0 161.5 -14.5t116.5 -38.5t78 -56t47 -67t23 -70.5t6 -67.5 q0 -86 -32.5 -156t-96.5 -120t-158.5 -77.5t-218.5 -27.5q-102 0 -192 16.5t-157 51.5t-105.5 89t-38.5 129zM312 -189q0 -68 31 -112.5t79 -70.5t106.5 -36t114.5 -10q164 0 245 54t81 166q0 37 -10.5 71t-45.5 61t-102 45.5t-179 24.5l-61 2q-69 0 -120.5 5t-90.5 13 q-20 -34 -34 -84.5t-14 -128.5zM327 792q0 -62 15 -117.5t47.5 -97t84 -65.5t123.5 -24q62 0 105 17t69.5 51.5t38.5 86t12 120.5q0 149 -64 221t-192 72q-50 0 -93.5 -13t-76 -43.5t-51 -81t-18.5 -126.5z" />
<glyph unicode="h" horiz-adv-x="1386" d="M94 1496v87l316 42l47 -23v-355l-2 -87l-3 -173q44 36 95.5 64t103.5 47.5t101.5 30t89.5 10.5q102 0 167 -31t102.5 -95.5t51.5 -165.5q13 -94 13 -222v-18v-501l150 -21v-85h-510v85l168 21v416q0 116 -5.5 204t-29 147.5t-70.5 89.5t-130 30q-33 0 -70 -4t-74.5 -13.5 t-75 -25.5t-72.5 -41v-803l147 -21v-85h-489v85l150 21v1354z" />
<glyph unicode="i" horiz-adv-x="665" d="M109 0v85l170 21v819l-138 73v62l277 79l45 -20v-1013l162 -21v-85h-516zM204 1527q0 31 13.5 58t34.5 46.5t47.5 30.5t53.5 11q66 0 96.5 -36.5t30.5 -87.5q0 -33 -13 -60t-34 -45.5t-48 -29t-55 -10.5q-24 0 -47 8.5t-40.5 24t-28 38.5t-10.5 52z" />
<glyph unicode="j" horiz-adv-x="656" d="M-15 -342q8 -3 23 -5t31.5 -3.5t31.5 -2t24 -0.5q48 0 81.5 11.5t54 48t29.5 106t9 185.5v927l-139 74v60l281 80l46 -20v-1135q0 -117 -25.5 -209.5t-73 -157t-114.5 -98.5t-150 -34q-10 0 -27 1t-33.5 3t-30.5 5t-18 6v158zM194 1527q0 31 13.5 58t34.5 46.5t47.5 30.5 t53.5 11q66 0 96.5 -36.5t30.5 -87.5q0 -33 -13 -60t-34 -45.5t-48 -29t-55 -10.5q-24 0 -47 8.5t-40.5 24t-28 38.5t-10.5 52z" />
<glyph unicode="k" horiz-adv-x="1275" d="M85 1496v87l332 42l40 -23v-758l-2 -140l-4 -176l443 481l-153 14v106h469v-106l-148 -16l-337 -343l407 -558l135 -21v-85h-485v85l140 23l-312 460l-159 -157l6 -194v-112l144 -20v-85h-500v85l164 22v1353z" />
<glyph unicode="l" horiz-adv-x="665" d="M99 0v85l170 21v1354l-160 36v87l313 42l40 -23v-1496l178 -21v-85h-541z" />
<glyph unicode="m" horiz-adv-x="2070" d="M123 998v62l266 79l45 -20v-143q33 29 80 57.5t100.5 51.5t109.5 37.5t107 16.5h23q92 -1 152 -29q66 -32 103 -113q36 27 85 52t103 44.5t109 31.5t103 14h19q81 0 138 -23q64 -26 103 -84t56 -150t17 -221v-555l169 -21v-85h-497v85l136 21v520q0 96 -9 166.5 t-35.5 116t-73.5 66.5q-41 18 -104 18h-19q-32 -2 -67.5 -9t-70.5 -18q-33 -11 -66.5 -25.5t-62.5 -32.5q11 -47 17 -109t6 -128v-566l153 -20v-85h-495v85l150 22v535q0 95 -9.5 163t-36.5 111q-27 44 -75 62q-41 16 -102 15h-21q-54 -3 -124 -27.5t-146 -76.5v-391.5 t1 -391.5l148 -21v-85h-479v85l136 22v813z" />
<glyph unicode="n" horiz-adv-x="1386" d="M123 998v62l266 79l45 -20v-143q34 29 81.5 57.5t101.5 51.5t110.5 37.5t107.5 16.5h23h22q22 -1 41 -4q69 -10 116 -43t76 -90t42 -140t13 -192v-565l161 -20v-85h-504v85l151 21v529q0 91 -9 159.5t-35 113.5q-27 44 -74 66q-41 19 -105 19h-18q-62 -3 -131 -27.5 t-145 -76.5v-783l149 -21v-85h-479v85l136 20v815z" />
<glyph unicode="o" horiz-adv-x="1237" d="M104 582q2 134 46.5 239.5t117.5 178.5t168.5 112t199.5 40h6q124 0 215 -44q94 -45 155.5 -123.5t91.5 -184.5q29 -103 29 -219v-8q-1 -133 -42.5 -243t-112 -188.5t-165 -122t-202.5 -43.5q-138 0 -235 50t-158 134q-60 84 -88 194q-26 102 -26 212v16zM309 591 q0 -97 19 -187t57 -159.5t96.5 -112t138.5 -44.5h10q78 0 134 29q58 31 94.5 91.5t53 150t16.5 205.5q0 101 -17.5 188.5t-55 152.5t-95 102.5t-136.5 39.5h-5q-81 1 -139 -29q-60 -30 -98 -89.5t-55.5 -144.5t-17.5 -193z" />
<glyph unicode="p" horiz-adv-x="1272" d="M113 998v62l265 79l46 -21v-116q21 24 55.5 50.5t79.5 48.5t100 36.5t117 14.5q84 0 163 -29.5t140.5 -95.5t98.5 -172.5t37 -259.5q0 -128 -41.5 -241.5t-117 -198.5t-180.5 -134t-231 -49q-56 0 -106 9.5t-98 22.5l6 -264v-145l196 -21v-85h-528v85l140 22v1324z M446 919q0 -91 0.5 -180t0.5 -180v-394q23 -40 78.5 -64t142.5 -24q65 0 128 27.5t113 86.5t81.5 152.5t33.5 225.5v17q0 113 -26 192q-27 85 -73.5 137t-106 75t-122.5 23q-48 0 -86.5 -9.5t-69.5 -23.5t-54.5 -30.5t-39.5 -30.5z" />
<glyph unicode="q" horiz-adv-x="1272" d="M97 546q0 127 43.5 238t122 193t187.5 129t239 47q60 0 117 -11t92 -25l120 23l40 -20v-1515l136 -21v-95h-534v95l206 21v348l6 153q-17 -17 -46.5 -40t-71.5 -44t-97 -35.5t-124 -14.5q-36 0 -82 8t-94.5 30t-95 62t-83 103.5t-59 154.5t-22.5 216zM288 579v-19 q0 -104 20 -184q22 -88 63 -146.5t100 -88.5t132 -30q47 0 88 8t74.5 21.5t58.5 30.5t42 34v761q-35 45 -89 62.5t-120 17.5q-77 0 -143.5 -29t-116 -87.5t-78.5 -146t-31 -204.5z" />
<glyph unicode="r" horiz-adv-x="905" d="M90 0v85l175 22v813l-142 78v62l264 79l47 -20v-154q19 28 57.5 59t86.5 56.5t100 42t98 16.5q33 0 62.5 -1.5t40.5 -5.5v-205q-32 13 -73 23.5t-110 10.5q-41 0 -74.5 -6t-62 -16.5t-53 -24t-47.5 -27.5v-779l272 -23v-85h-641z" />
<glyph unicode="s" horiz-adv-x="1032" d="M165 61v229h86l39 -122q25 -21 50 -36.5t51 -25.5t55.5 -15.5t64.5 -6.5h17q46 0 86 9q47 11 81 35t53 61t19 87q0 45 -24.5 77t-64.5 57.5t-91 47t-104 47.5q-59 28 -115.5 60.5t-100 73.5t-69.5 93q-25 50 -25 113q1 54 19 99q18 42 47 75t68 57.5t83 41t90.5 25 t91.5 9.5h15q41 0 81 -4q46 -6 87 -16t73.5 -23t55.5 -26v-223h-81l-43 121q-28 29 -69.5 49.5t-107.5 21.5q-48 0 -88.5 -10t-70.5 -31t-47.5 -53t-18.5 -77v-7q0 -42 22 -72q24 -34 63 -60.5t89.5 -50t103.5 -49.5q37 -17 74.5 -34.5t72.5 -38t66 -45t53.5 -54.5 t35.5 -67.5t13 -84.5q0 -85 -34 -149t-93.5 -107t-139 -64.5t-170.5 -21.5t-182 21.5t-167 63.5z" />
<glyph unicode="t" horiz-adv-x="858" d="M128 993v75q44 11 73.5 17.5t49 15t32.5 21.5t24 38q7 17 17.5 50t20 67.5t16.5 65t9 43.5h98v-267h337v-126h-337v-504q0 -116 3.5 -188.5t15.5 -113.5t35 -55.5t64 -14.5q20 0 47 3t54 9t50.5 14t36.5 18l31 -88q-23 -25 -59 -43t-77 -30t-83.5 -18t-76.5 -6 q-109 0 -169 67t-60 219q0 184 0.5 365.5t0.5 365.5h-153z" />
<glyph unicode="u" horiz-adv-x="1271" d="M98 1007v77l257 55l35 -18v-689q0 -83 9 -142.5t33 -98t66 -57t108 -18.5q45 0 88.5 12.5t81 30t65.5 37t41 33.5v739l-125 32v82l286 57l28 -17v-1036h120v-77q-15 -8 -37 -15.5t-47.5 -13.5t-52 -10t-50.5 -4q-48 0 -75.5 20.5t-27.5 65.5v82q-87 -79 -182.5 -117 t-186.5 -38q-118 0 -184 36.5t-98.5 101t-40 152.5t-8.5 192v516z" />
<glyph unicode="v" horiz-adv-x="1240" d="M28 1014v105h446v-105l-125 -21l207 -534l90 -303l98 291l211 546l-136 20v106h398v-105l-106 -22l-423 -1016h-131l-426 1019z" />
<glyph unicode="w" horiz-adv-x="1753" d="M28 1013v106h438v-106l-141 -22l140 -518l26 -96l43 -223l64 231l32 105l192 629h157l180 -640l30 -107l50 -217l67 224l165 614l-139 20v106h398v-105l-106 -22l-313 -1017h-172l-147 476l-88 286l-31 160l-30 -160l-59 -191l-177 -571h-160l-317 1020z" />
<glyph unicode="x" horiz-adv-x="1253" d="M50 1013v106h507v-106l-140 -18l115 -178q31 -47 62 -92.5t63 -92.5l41 73l201 293l-142 15v106h425v-106l-129 -18l-330 -429l348 -461l139 -20v-85h-489v85l124 20l-140 213q-8 11 -16 22.5t-16 23.5l-70 99l-42 -76l-193 -281l181 -21v-85h-497v85l156 22l331 436 l-346 452z" />
<glyph unicode="y" horiz-adv-x="1209" d="M16 1013v106h463v-106l-144 -20l235 -671l67 -204l58 204l200 674l-156 17v106h432v-106l-112 -16q-67 -194 -117.5 -341t-87.5 -255t-63 -183t-43.5 -125t-28.5 -80.5t-19 -50.5q-39 -100 -78.5 -180t-83.5 -138.5t-94.5 -96t-112.5 -52.5q-40 -10 -88 -10q-10 0 -22 1 t-23.5 3t-20.5 5t-13 6v158q17 -5 39.5 -8t40.5 -3q36 0 78 13.5t85 51.5t83.5 107.5t73.5 180.5h-43l-401 995z" />
<glyph unicode="z" horiz-adv-x="1098" d="M105 55l67 122l523 750l82 98l-460 -16l-60 -184h-93v294h822l25 -52l-71 -124l-501 -715l-99 -130l504 22l64 169q26 0 51.5 -0.5t51.5 -0.5l-17 -288h-860z" />
<glyph unicode="{" horiz-adv-x="1066" d="M111 714v126q42 10 86.5 23.5t80.5 29.5t59.5 34.5t23.5 39.5v519q0 74 8 122.5t29 77t58 40t95 11.5q41 0 75.5 -4t66 -10t61.5 -14t62 -16q0 -22 -0.5 -43t-0.5 -43h-291v-636q0 -40 -18.5 -67.5t-49.5 -49t-71 -39.5t-82 -38q42 -19 82 -38.5t71 -43.5t49.5 -53.5 t18.5 -66.5v-634h291q0 -22 0.5 -44t0.5 -44q-32 -9 -62 -17t-61.5 -14t-66 -9.5t-75.5 -3.5q-58 0 -95 11.5t-58 40t-29 77t-8 122.5v519q0 20 -23 40t-59 38t-80.5 32.5t-87.5 24.5z" />
<glyph unicode="|" horiz-adv-x="873" d="M358 -186v1966h173v-1966h-173z" />
<glyph unicode="}" horiz-adv-x="1066" d="M251 -145q0 22 0.5 43t0.5 43h291v636q0 40 18.5 67.5t49 49t70.5 39.5t82 38q-42 19 -82 38.5t-70.5 43.5t-49 53t-18.5 67v634h-291q0 22 -0.5 44t-0.5 44q32 9 62 17t61.5 14t66 9.5t75.5 3.5q58 0 95 -11.5t58 -40t29 -77t8 -122.5v-519q0 -21 23 -40.5t59.5 -37.5 t81 -32.5t86.5 -24.5v-126q-42 -10 -86.5 -23.5t-80.5 -29.5t-59.5 -34.5t-23.5 -39.5v-519q0 -74 -8 -122.5t-29 -77t-58 -40t-95 -11.5q-41 0 -75.5 4t-66 10t-61.5 14t-62 16z" />
<glyph unicode="~" horiz-adv-x="1257" d="M160 858q22 38 59 72.5t82 60.5t94.5 41.5t96.5 15.5q39 0 69.5 -11t55.5 -27t46.5 -35.5t43 -35.5t45 -27t52.5 -11q34 0 66.5 10t61 25t52.5 33t42 35l62 -79q-23 -38 -59.5 -72.5t-81.5 -61t-94.5 -42t-96.5 -15.5q-39 0 -69.5 11t-55 27.5t-46 35.5t-43 35.5 t-45.5 27.5t-53 11q-35 0 -67 -10t-60.5 -25t-52.5 -33.5t-42 -34.5z" />
<glyph unicode="&#xa1;" horiz-adv-x="706" d="M215 -408l73 1330h118l65 -1330h-256zM222 1291q0 31 13.5 58t34.5 46.5t47.5 30.5t53.5 11q66 0 96.5 -36.5t30.5 -87.5q0 -33 -13 -60t-34 -45.5t-48 -29t-55 -10.5q-24 0 -47 8.5t-40.5 24t-28 38.5t-10.5 52z" />
<glyph unicode="&#xa2;" horiz-adv-x="1041" d="M84 538q-1 138 41.5 249t116.5 190t174 123t215 49q42 1 85 -1.5t81 -9t69.5 -16.5t51.5 -23v-240h-95l-51 126q-16 13 -36.5 22t-42 15t-43 8.5t-39.5 2.5q-67 0 -128.5 -25t-109 -75.5t-76 -127t-29.5 -179.5q-1 -136 32 -233t86 -158.5t118 -90t128 -28.5q39 0 78 5 t74.5 13t66 19.5t51.5 23.5l34 -89q-29 -26 -71 -46t-91.5 -34t-105 -21.5t-112.5 -7.5q-112 0 -199.5 42t-147.5 117t-92 177.5t-33 222.5zM463 -216l18 315h124l-18 -315h-124zM555 1047l18 315h124l-18 -315h-124z" />
<glyph unicode="&#xa3;" horiz-adv-x="1428" d="M82 61q0 27 20.5 56t58.5 52.5t93 37.5t123 11q10 22 16.5 54t10.5 67.5t5.5 71t1.5 64.5v261h-177v132h177v98q0 115 34.5 220t99.5 185t159.5 127.5t213.5 47.5q51 0 91 -6.5t72 -17.5t56 -25.5t43 -31.5l-96 -183q-4 7 -25 30t-56.5 47.5t-83.5 43.5t-106 19 q-43 0 -81 -20t-67 -71t-46 -139t-17 -224v-100h326v-132h-325v-40q0 -69 -2.5 -124.5t-8.5 -100t-15 -81.5t-21.5 -70.5t-28.5 -65.5t-36 -67q34 -2 72.5 -16.5t81.5 -32t88.5 -35t92.5 -25.5q95 -17 158.5 -4t102 44t54.5 75.5t16 90.5q0 19 -4 39.5t-13 40.5t-23 38 t-33 33l92 175q69 -29 110.5 -91.5t52.5 -146.5q4 -31 3.5 -71.5t-10.5 -83t-33 -84.5t-63 -77t-100 -59.5t-145 -31.5q-43 -4 -91.5 -3t-105.5 8q-83 10 -145.5 33.5t-109.5 46.5t-82.5 39t-65.5 11q-19 -26 -42 -50t-49.5 -42t-56.5 -28.5t-63 -10.5q-14 0 -31 3t-32 13 t-25 28t-10 48z" />
<glyph unicode="&#xa4;" horiz-adv-x="1427" d="M217 1095l85 86l181 -182q47 32 102 50.5t117 18.5q66 0 126 -21.5t108 -59.5l182 181l85 -86l-184 -184q30 -45 46.5 -97.5t16.5 -110.5q0 -63 -19 -119t-53 -103l181 -180l-86 -85l-181 180q-47 -34 -103 -52.5t-119 -18.5q-60 0 -114.5 17t-101.5 49l-180 -180l-86 85 l178 178q-36 48 -56 106t-20 123q0 63 19.5 120t54.5 105zM465 690q0 -51 18.5 -95.5t51 -78.5t75.5 -53.5t92 -19.5t92 19.5t75.5 53.5t51 78.5t18.5 95.5t-18.5 95.5t-51 78.5t-75.5 53.5t-92 19.5t-92 -19.5t-75.5 -53.5t-51 -78.5t-18.5 -95.5z" />
<glyph unicode="&#xa5;" horiz-adv-x="1312" d="M-15 1433v98h503v-98l-148 -17l282 -441l49 -114h27l62 122q63 109 127.5 216.5t130.5 216.5l-147 17v98h456v-98l-142 -30l-356 -542h334v-127h-408v-230h408v-127h-408v-261l204 -31v-85h-593v85l194 30v262h-425v127h425v230h-425v127h358l-376 554z" />
<glyph unicode="&#xa6;" horiz-adv-x="873" d="M357 -186v894h173v-894h-173zM357 886v894h173v-894h-173z" />
<glyph unicode="&#xa7;" horiz-adv-x="1229" d="M94 90h86l65 -194q34 -38 73.5 -59t82 -32t87 -13.5t89.5 -2.5q51 0 105 14t98 45t72 80t28 119q0 66 -33 116.5t-87 92t-123 76t-140.5 69.5t-140.5 73.5t-123 86t-87 108.5t-33 141q0 40 7.5 81.5t21.5 80.5t33 74t43 62q-42 44 -66 98t-24 123q0 70 22.5 126.5t60 100 t87 75.5t104 52.5t110 30t105.5 9.5q73 0 135 -7t111.5 -18.5t85.5 -25t58 -26.5v-277h-85l-78 192q-13 15 -37.5 26t-56.5 18.5t-69 11.5t-76 4q-41 0 -91.5 -12t-95.5 -41.5t-75.5 -78t-30.5 -121.5q0 -63 33 -111t87 -87t123 -72.5t141.5 -67t141.5 -71t123 -84.5 t87 -108t33 -141q0 -42 -6.5 -86t-18.5 -85t-29 -78t-39 -65q36 -42 57 -92t21 -113q0 -112 -42 -192t-113 -131.5t-164.5 -75.5t-196.5 -24q-75 0 -147.5 8t-134 20.5t-107.5 27.5t-67 28v322zM297 849q0 -57 26.5 -101t70.5 -80t102.5 -67t121.5 -60t127.5 -60t121.5 -67 q13 35 20.5 76t7.5 76q0 58 -26 104t-69 84t-100 70t-119.5 62.5t-126 61.5t-120.5 67q-17 -37 -27 -81t-10 -85z" />
<glyph unicode="&#xa8;" horiz-adv-x="982" d="M67 1503q0 31 13.5 58t34.5 46.5t47.5 30.5t53.5 11q66 0 96.5 -36.5t30.5 -87.5q0 -33 -13 -60t-34 -45.5t-48 -29t-55 -10.5q-24 0 -47 8.5t-40.5 24t-28 38.5t-10.5 52zM539 1503q0 31 13.5 58t34.5 46.5t47.5 30.5t53.5 11q66 0 96.5 -36.5t30.5 -87.5q0 -33 -13 -60 t-34 -45.5t-48 -29t-55 -10.5q-24 0 -47 8.5t-40.5 24t-28 38.5t-10.5 52z" />
<glyph unicode="&#xa9;" horiz-adv-x="1940" d="M131 1056q0 115 30.5 223t85.5 203t132 173t171 134t201 87t223 31q115 0 222 -31t200.5 -87t171 -134t132.5 -173t85.5 -203t30.5 -223t-30.5 -222.5t-85.5 -202t-132.5 -172.5t-171 -134.5t-200.5 -87.5t-222 -31t-222.5 31t-201.5 87.5t-171 134.5t-132 172.5 t-85.5 202t-30.5 222.5zM261 1056q0 -98 25.5 -190.5t71.5 -173.5t111 -148.5t144 -116t170.5 -75t190.5 -26.5q98 0 189.5 26.5t170.5 75t144 116t111 148.5t71.5 173t25.5 191t-25.5 192t-71.5 174t-111 148.5t-144 115.5t-170.5 74.5t-189.5 26.5q-99 0 -190.5 -26.5 t-170.5 -74.5t-144 -115.5t-111 -148.5t-71.5 -174t-25.5 -192zM536 1048q0 105 40.5 196t104.5 159.5t144 109.5t158 47q67 4 123 0q83 -6 132 -23.5t59 -34.5v-210h-116l-49 126q-11 7 -23 13.5t-30.5 10.5t-45.5 6.5t-68 2.5q-59 0 -104.5 -27t-77 -75.5t-47.5 -115 t-16 -145.5q0 -84 25.5 -154t70.5 -120.5t106 -78.5t133 -28q31 0 65.5 5t66 13t56 19t36.5 22l28 -73q-21 -24 -54.5 -46.5t-75.5 -39t-91.5 -26.5t-102.5 -10q-111 0 -194.5 35.5t-139.5 99t-84.5 151t-28.5 191.5z" />
<glyph unicode="&#xaa;" horiz-adv-x="1063" d="M124 926q0 60 29 104.5t75.5 76t106 51.5t120.5 31.5t118 16t100 4.5v26q0 64 -16.5 100.5t-46 55.5t-69.5 24t-87 5q-39 0 -75.5 -4.5t-68.5 -12.5t-58.5 -19t-44.5 -25l-38 88q22 20 60 37.5t84.5 30.5t97.5 20.5t99 7.5q72 0 134.5 -9.5t109 -41t73 -90t26.5 -155.5 l-2 -458h87v-76q-13 -5 -34.5 -11t-45.5 -11t-48 -8t-43 -3t-35 3t-28 13t-19 28.5t-7 49.5v15q-17 -15 -43.5 -32.5t-64.5 -33.5t-88.5 -26.5t-114.5 -10.5q-33 0 -75.5 14t-79.5 43t-62.5 74t-25.5 108zM313 959q0 -38 10.5 -67t28.5 -48.5t42 -29.5t51 -10q26 0 57.5 4.5 t63 13t59.5 21.5t46 30l1 246q-56 0 -119 -7.5t-116.5 -26t-88.5 -49.5t-35 -77z" />
<glyph unicode="&#xab;" horiz-adv-x="1897" d="M245 489v243l648 343l51 -83l-517 -369l517 -371l-51 -89zM953 489v243l648 343l51 -83l-517 -369l517 -371l-51 -89z" />
<glyph unicode="&#xac;" d="M180 572v128h876v-529h-164v401h-712z" />
<glyph unicode="&#xad;" horiz-adv-x="892" d="M79 532v173h732v-173h-732z" />
<glyph unicode="&#xae;" horiz-adv-x="1940" d="M131 1056q0 115 30.5 223t85.5 203t132 173t171 134t201 87t223 31q115 0 222 -31t200.5 -87t171 -134t132.5 -173t85.5 -203t30.5 -223t-30.5 -222.5t-85.5 -202t-132.5 -172.5t-171 -134.5t-200.5 -87.5t-222 -31t-222.5 31t-201.5 87.5t-171 134.5t-132 172.5 t-85.5 202t-30.5 222.5zM261 1056q0 -98 25.5 -190.5t71.5 -173.5t111 -148.5t144 -116t170.5 -75t190.5 -26.5q98 0 189.5 26.5t170.5 75t144 116t111 148.5t71.5 173t25.5 191t-25.5 192t-71.5 174t-111 148.5t-144 115.5t-170.5 74.5t-189.5 26.5q-99 0 -190.5 -26.5 t-170.5 -74.5t-144 -115.5t-111 -148.5t-71.5 -174t-25.5 -192zM579 578v85l92 28v728l-92 24v97h160q30 -1 51.5 -1t48 1t64 2.5t100.5 2.5q172 0 260 -60.5t91 -175.5q0 -45 -10.5 -91.5t-39 -87t-79.5 -72t-132 -45.5q45 -25 76 -60t55 -73t44 -75.5t42.5 -67t50.5 -48 t69 -18.5v-93h-158q-47 0 -77 25t-52 64t-40.5 87.5t-41.5 94.5t-55 85t-82 60h-74v-309l91 -22v-85h-362zM850 1092q30 -6 60 -7.5t74 -1.5q42 0 77 15t60 40t39 58t14 69q0 48 -15 82t-42.5 56t-65.5 32t-84 10h-29.5t-25 -0.5t-27 -3t-35.5 -7.5v-342z" />
<glyph unicode="&#xaf;" horiz-adv-x="959" d="M214 1436v148h531v-148h-531z" />
<glyph unicode="&#xb0;" horiz-adv-x="708" d="M35 1368q0 65 25 122.5t68.5 100.5t101.5 68t123 25q66 0 124 -25t101.5 -68t68.5 -100.5t25 -122.5t-25 -122.5t-68.5 -100.5t-101.5 -68t-124 -25q-65 0 -123 25t-101.5 68t-68.5 100.5t-25 122.5zM153 1369q0 -42 15.5 -78.5t42.5 -64.5t63.5 -44t78.5 -16t78.5 16 t63.5 44t42.5 64.5t15.5 78.5t-15.5 78.5t-42.5 64t-63.5 43.5t-78.5 16t-78.5 -16t-63.5 -43.5t-42.5 -64t-15.5 -78.5z" />
<glyph unicode="&#xb1;" horiz-adv-x="1233" d="M160 710v173h220l159 -12l-7 161v228h167v-228l-7 -161l130 12h251v-173h-251l-130 9l7 -158v-240h-167v240l7 158l-159 -9h-220zM173 30v147h885v-147h-885z" />
<glyph unicode="&#xb2;" d="M178 819q127 82 242 154.5t202 142t138.5 141t51.5 152.5q0 36 -13 67.5t-41 54t-71.5 34.5t-104.5 9q-53 -3 -104 -19.5t-96 -40t-81.5 -50t-60.5 -48.5l-53 102q28 34 73 68.5t102.5 62.5t125 45.5t141.5 17.5q100 0 172 -23.5t118.5 -62t69 -88t22.5 -101.5 q0 -95 -45.5 -173t-126 -149t-190.5 -141t-239 -149l531 51l88 147l86 -28l-67 -275h-823z" />
<glyph unicode="&#xb3;" horiz-adv-x="1063" d="M169 1573q23 18 62 40.5t86.5 43t100 36t102.5 20.5q99 10 171 0t118.5 -36.5t69 -68.5t22.5 -96q0 -91 -58.5 -158t-173.5 -109q100 0 160.5 -24t92 -60.5t41.5 -78t10 -75.5q0 -71 -31 -131.5t-90.5 -105.5t-145.5 -70.5t-195 -25.5q-30 0 -68 2.5t-78.5 7.5t-82 12 t-77.5 16v94q29 -6 64.5 -11t71.5 -9t68.5 -5.5t56.5 -1.5q148 3 225.5 64t77.5 160q0 10 -2 24.5t-9 31t-20.5 33.5t-36.5 32t-57 26.5t-82 16.5l-207 -40v118q82 16 146 35t108.5 46.5t68 66t23.5 93.5q0 36 -27 63q-26 26 -69.5 38t-94.5 10q-38 -2 -79 -10t-80 -20 t-73.5 -28t-59.5 -34z" />
<glyph unicode="&#xb4;" horiz-adv-x="828" d="M367 1394l324 416l146 -149q-20 -28 -51.5 -59.5t-68.5 -63t-78 -61.5t-80.5 -56t-75.5 -47t-63 -34z" />
<glyph unicode="&#xb6;" horiz-adv-x="1259" d="M111 1127q0 98 30.5 176.5t94 133.5t161 84.5t230.5 29.5q34 0 85.5 -2.5t107.5 -6t111.5 -7t97.5 -4.5h171v-101l-172 -33v-1282l148 -30v-85h-277l-2 1397h-196v-1397h-325v85l199 30v561q-107 0 -192.5 26.5t-146 82t-93 140.5t-32.5 202z" />
<glyph unicode="&#xb7;" horiz-adv-x="706" d="M215 797q0 31 13.5 58t34.5 46.5t47.5 30.5t53.5 11q66 0 96.5 -36.5t30.5 -87.5q0 -33 -13 -60t-34 -45.5t-48 -29t-55 -10.5q-24 0 -47 8.5t-40.5 24t-28 38.5t-10.5 52z" />
<glyph unicode="&#xb8;" horiz-adv-x="615" d="M31 -506q0 26 0.5 50.5t0.5 50.5q12 -3 27.5 -5.5t31.5 -5t30.5 -3.5t23.5 -1q28 0 53 3t44.5 14.5t31 33.5t11.5 60q0 44 -38 72t-119 28q-6 0 -13.5 -0.5l-15 -1t-13.5 -1.5t-7 -1q1 49 5.5 100.5t21.5 112.5h124q-4 -25 -5.5 -59.5t1.5 -65.5q69 0 117.5 -19t79 -48 t44.5 -64t14 -68q0 -50 -18.5 -86.5t-51.5 -61.5t-78.5 -38.5t-100.5 -16.5q-44 -2 -75 -0.5t-54 5t-40 8t-32 8.5z" />
<glyph unicode="&#xb9;" horiz-adv-x="1085" d="M223 1530q30 9 71 24t85.5 33t89.5 38.5t83 39t66.5 34t40.5 25.5l52 -15l-3 -879l259 -26v-85h-724v85l272 27v653l-272 -53z" />
<glyph unicode="&#xba;" horiz-adv-x="1063" d="M122 1114q2 114 42 194.5t101 132t135 75.5t144 25q93 1 167 -29.5t125.5 -87.5t78.5 -138.5t26 -181.5q-1 -113 -41.5 -193t-102 -130t-134.5 -73.5t-140 -23.5q-84 0 -157.5 28t-128.5 82.5t-86 135t-29 184.5zM327 1124q0 -78 15 -139.5t41 -104t61 -66t76 -25.5 q54 -3 94.5 9t67.5 46t40.5 94t13.5 154q0 77 -13 140t-39 107.5t-64 69.5t-87 26q-50 1 -88 -16t-64.5 -55t-40 -97.5t-13.5 -142.5z" />
<glyph unicode="&#xbb;" horiz-adv-x="1897" d="M245 246l516 369l-516 371l51 89l648 -326v-243l-648 -343zM953 246l516 369l-516 371l51 89l648 -326v-243l-648 -343z" />
<glyph unicode="&#xbc;" horiz-adv-x="2626" d="M223 1530q30 9 71 24t85.5 33t89.5 38.5t83 39t66.5 34t40.5 25.5l52 -15l-3 -879l259 -26v-85h-724v85l272 27v653l-272 -53zM865 -342l626 2223h143l-626 -2224q-36 0 -71.5 0.5t-71.5 0.5zM1430 275l565 846h63l98 -88l-290 -380l-193 -253l-72 -102l436 26l2 268 l176 20v-277l263 16l3 -170h-266v-365h-181l2 365h-575z" />
<glyph unicode="&#xbd;" horiz-adv-x="2626" d="M223 1530q30 9 71 24t85.5 33t89.5 38.5t83 39t66.5 34t40.5 25.5l52 -15l-3 -879l259 -26v-85h-724v85l272 27v653l-272 -53zM865 -342l626 2223h143l-626 -2224q-36 0 -71.5 0.5t-71.5 0.5zM1592 99q85 55 166 102.5t152.5 91t132 86t104 87t68 93t24.5 104.5 q0 60 -24 100q-25 42 -79.5 64t-148.5 22q-50 0 -99 -14.5t-93 -36.5t-80.5 -47.5t-60.5 -47.5l-53 85q28 36 76.5 71t109.5 62.5t132 44t144 16.5q101 0 171.5 -24t115 -62.5t65 -85.5t20.5 -93q0 -69 -23.5 -127.5t-66 -109t-101.5 -96.5t-130.5 -91t-153.5 -91t-169 -98 l544 41l96 118l86 -28l-55 -235h-833z" />
<glyph unicode="&#xbe;" horiz-adv-x="2795" d="M169 1573q23 18 62 40.5t86.5 43t100 36t102.5 20.5q99 10 171 0t118.5 -36.5t69 -68.5t22.5 -96q0 -91 -58.5 -158t-173.5 -109q100 0 160.5 -24t92 -60.5t41.5 -78t10 -75.5q0 -71 -31 -131.5t-90.5 -105.5t-145.5 -70.5t-195 -25.5q-30 0 -68 2.5t-78.5 7.5t-82 12 t-77.5 16v94q29 -6 64.5 -11t71.5 -9t68.5 -5.5t56.5 -1.5q148 3 225.5 64t77.5 160q0 10 -2 24.5t-9 31t-20.5 33.5t-36.5 32t-57 26.5t-82 16.5l-207 -40v118q82 16 146 35t108.5 46.5t68 66t23.5 93.5q0 36 -27 63q-26 26 -69.5 38t-94.5 10q-38 -2 -79 -10t-80 -20 t-73.5 -28t-59.5 -34zM865 -342l626 2223h143l-626 -2224q-36 0 -71.5 0.5t-71.5 0.5zM1430 275l565 846h63l98 -88l-290 -380l-193 -253l-72 -102l436 26l2 268l176 20v-277l263 16l3 -170h-266v-365h-181l2 365h-575z" />
<glyph unicode="&#xbf;" horiz-adv-x="1012" d="M55.5 96.5q-6.5 73.5 2.5 138.5q0 23 11 43t31 38q26 24 63.5 46t79.5 43t84.5 41.5t78.5 41.5t61.5 43.5t33.5 47.5q6 40 -1.5 82.5t-23 86.5t-35 89t-36.5 91h105q24 -18 54.5 -58t58.5 -88.5t48 -100t23 -93.5q2 -42 -31.5 -76.5t-85.5 -64t-113.5 -55t-116.5 -49.5 t-95 -47t-47 -47q-4 -65 12.5 -127t48 -116.5t77 -100t100.5 -78t117 -50.5t127 -18q19 0 42 1t45.5 3.5t43 7t34.5 10.5v-152q-8 -10 -27.5 -18.5t-45.5 -14.5t-56.5 -9.5t-60.5 -3.5q-125 0 -221 30t-166 81t-116 117.5t-71.5 139t-32 146zM283 1290q0 31 13.5 58 t34.5 46.5t47.5 30.5t53.5 11q66 0 96.5 -36.5t30.5 -87.5q0 -33 -13 -60t-34 -45.5t-48 -29t-55 -10.5q-24 0 -47 8.5t-40.5 24t-28 38.5t-10.5 52z" />
<glyph unicode="&#xc0;" horiz-adv-x="1502" d="M2 0v85l140 29l525 1397h182l483 -1396l169 -30v-85h-548v85l162 30l-105 322h-589l-111 -322l170 -30v-85h-478zM382 1808l164 112l286 -289l-83 -54q-31 9 -77 30t-97 51t-102 68t-91 82zM462 554h510l-152 468l-95 291z" />
<glyph unicode="&#xc1;" horiz-adv-x="1502" d="M2 0v85l140 29l525 1397h182l483 -1396l169 -30v-85h-548v85l162 30l-105 322h-589l-111 -322l170 -30v-85h-478zM462 554h510l-152 468l-95 291zM708 1631l286 289l164 -112q-41 -44 -91.5 -82t-101.5 -68t-97 -51t-77 -30z" />
<glyph unicode="&#xc2;" horiz-adv-x="1502" d="M2 0v85l140 29l525 1397h182l483 -1396l169 -30v-85h-548v85l162 30l-105 322h-589l-111 -322l170 -30v-85h-478zM381 1644l283 312h189l282 -312l-87 -46l-291 222l-298 -222zM462 554h510l-152 468l-95 291z" />
<glyph unicode="&#xc3;" horiz-adv-x="1502" d="M2 0v85l140 29l525 1397h182l483 -1396l169 -30v-85h-548v85l162 30l-105 322h-589l-111 -322l170 -30v-85h-478zM366 1731q19 35 49.5 66.5t68 55.5t79 38.5t80.5 14.5q49 0 82 -21t60.5 -46.5t54.5 -46.5t63 -21q29 0 55.5 9t50 23t43.5 30.5t36 32.5l52 -73 q-19 -35 -49.5 -67t-68 -56t-79 -38.5t-80.5 -14.5q-33 0 -58 10t-46 25t-38.5 33t-35.5 33t-38 25t-44 10q-29 0 -56 -9t-50.5 -23t-43.5 -31t-35 -32zM462 554h510l-152 468l-95 291z" />
<glyph unicode="&#xc4;" horiz-adv-x="1502" d="M2 0v85l140 29l525 1397h182l483 -1396l169 -30v-85h-548v85l162 30l-105 322h-589l-111 -322l170 -30v-85h-478zM377 1774q0 31 13.5 58t34.5 46.5t47.5 30.5t53.5 11q66 0 96.5 -36.5t30.5 -87.5q0 -33 -13 -60t-34 -45.5t-48 -29t-55 -10.5q-24 0 -47 8.5t-40.5 24 t-28 38.5t-10.5 52zM462 554h510l-152 468l-95 291zM843 1774q0 31 13.5 58t34.5 46.5t47.5 30.5t53.5 11q66 0 96.5 -36.5t30.5 -87.5q0 -33 -13 -60t-34 -45.5t-48 -29t-55 -10.5q-24 0 -47 8.5t-40.5 24t-28 38.5t-10.5 52z" />
<glyph unicode="&#xc5;" horiz-adv-x="1502" d="M2 0v85l140 29l525 1397h182l483 -1396l169 -30v-85h-548v85l162 30l-105 322h-589l-111 -322l170 -30v-85h-478zM462 554h510l-152 468l-95 291zM506 1678q0 50 20 94t54.5 76.5t80 51.5t97.5 19t97.5 -19t80 -51.5t54.5 -76.5t20 -94t-20 -94t-54.5 -76.5t-80 -51.5 t-97.5 -19t-97.5 19t-80 51.5t-54.5 76.5t-20 94zM625 1676q0 -28 10.5 -52t28.5 -42t42.5 -28.5t51.5 -10.5t51.5 10.5t42.5 28.5t28.5 42t10.5 52q0 27 -10.5 51t-28.5 42t-42.5 28.5t-51.5 10.5t-51.5 -10.5t-42.5 -28.5t-28.5 -42t-10.5 -51z" />
<glyph unicode="&#xc6;" horiz-adv-x="2000" d="M2 0v85l142 29l573 1397h1001l29 -285l-100 -2l-46 169l-669 12l167 -538l450 7l30 157h92v-420h-92l-30 143l-416 5l202 -649l375 17l100 207l87 -43l-45 -291h-899v85l164 31l-95 340h-578l-132 -341l168 -30v-85h-478zM489 573h501l-159 570l-47 191z" />
<glyph unicode="&#xc7;" horiz-adv-x="1441" d="M110 724q0 129 30 238.5t84 199t129 158t164.5 115t190.5 70t208 23.5q72 0 134 -8.5t114 -20t94 -23.5t75 -19l-16 -290h-106l-52 167q-32 21 -64 36t-68.5 24.5t-79 13.5t-94.5 4q-107 0 -204.5 -38t-172 -115.5t-118.5 -195.5t-44 -277q0 -142 35.5 -270.5t106 -226 t174.5 -155t241 -57.5q121 0 196 31.5t120 88.5l58 154q23 0 44.5 -0.5t44.5 -0.5v-287q-36 -2 -79.5 -16t-103.5 -31t-139.5 -30.5t-186.5 -13.5q-155 0 -286 55t-226.5 154.5t-149 237.5t-53.5 305zM612 -506q0 26 0.5 50.5t0.5 50.5q12 -3 27.5 -5.5t31.5 -5t30.5 -3.5 t23.5 -1q28 0 53 3t44.5 14.5t31 33.5t11.5 60q0 44 -38 72t-119 28q-6 0 -13.5 -0.5l-15 -1t-13.5 -1.5t-7 -1q1 49 5.5 100.5t21.5 112.5h124q-4 -25 -5.5 -59.5t1.5 -65.5q69 0 117.5 -19t79 -48t44.5 -64t14 -68q0 -50 -18.5 -86.5t-51.5 -61.5t-78.5 -38.5 t-100.5 -16.5q-44 -2 -75 -0.5t-54 5t-40 8t-32 8.5z" />
<glyph unicode="&#xc8;" horiz-adv-x="1351" d="M102 0v85l169 30v1280l-165 18v98h1014l29 -286h-110l-46 168l-528 13v-539l396 7l30 157h102v-430h-102l-30 153l-396 6v-652l560 19l100 207l97 -24l-45 -310h-1075zM481 1866l164 112l286 -289l-83 -54q-31 9 -77 30t-97 51t-102 68t-91 82z" />
<glyph unicode="&#xc9;" horiz-adv-x="1351" d="M102 0v85l169 30v1280l-165 18v98h1014l29 -286h-110l-46 168l-528 13v-539l396 7l30 157h102v-430h-102l-30 153l-396 6v-652l560 19l100 207l97 -24l-45 -310h-1075zM550 1689l286 289l164 -112q-41 -44 -91.5 -82t-101.5 -68t-97 -51t-77 -30z" />
<glyph unicode="&#xca;" horiz-adv-x="1351" d="M102 0v85l169 30v1280l-165 18v98h1014l29 -286h-110l-46 168l-528 13v-539l396 7l30 157h102v-430h-102l-30 153l-396 6v-652l560 19l100 207l97 -24l-45 -310h-1075zM336 1644l283 312h189l282 -312l-87 -46l-291 222l-298 -222z" />
<glyph unicode="&#xcb;" horiz-adv-x="1351" d="M102 0v85l169 30v1280l-165 18v98h1014l29 -286h-110l-46 168l-528 13v-539l396 7l30 157h102v-430h-102l-30 153l-396 6v-652l560 19l100 207l97 -24l-45 -310h-1075zM297 1775q0 31 13.5 58t34.5 46.5t47.5 30.5t53.5 11q66 0 96.5 -36.5t30.5 -87.5q0 -33 -13 -60 t-34 -45.5t-48 -29t-55 -10.5q-24 0 -47 8.5t-40.5 24t-28 38.5t-10.5 52zM763 1775q0 31 13.5 58t34.5 46.5t47.5 30.5t53.5 11q66 0 96.5 -36.5t30.5 -87.5q0 -33 -13 -60t-34 -45.5t-48 -29t-55 -10.5q-24 0 -47 8.5t-40.5 24t-28 38.5t-10.5 52z" />
<glyph unicode="&#xcc;" horiz-adv-x="764" d="M105 0v85l179 29v1282l-175 17v98h543v-98l-173 -18v-1280l182 -30v-85h-556zM188 1808l164 112l286 -289l-83 -54q-31 9 -77 30t-97 51t-102 68t-91 82z" />
<glyph unicode="&#xcd;" horiz-adv-x="764" d="M105 0v85l179 29v1282l-175 17v98h543v-98l-173 -18v-1280l182 -30v-85h-556zM258 1631l286 289l164 -112q-41 -44 -91.5 -82t-101.5 -68t-97 -51t-77 -30z" />
<glyph unicode="&#xce;" horiz-adv-x="764" d="M59 1644l283 312h189l282 -312l-87 -46l-291 222l-298 -222zM105 0v85l179 29v1282l-175 17v98h543v-98l-173 -18v-1280l182 -30v-85h-556z" />
<glyph unicode="&#xcf;" horiz-adv-x="764" d="M5 1774q0 31 13.5 58t34.5 46.5t47.5 30.5t53.5 11q66 0 96.5 -36.5t30.5 -87.5q0 -33 -13 -60t-34 -45.5t-48 -29t-55 -10.5q-24 0 -47 8.5t-40.5 24t-28 38.5t-10.5 52zM105 0v85l179 29v1282l-175 17v98h543v-98l-173 -18v-1280l182 -30v-85h-556zM471 1774 q0 31 13.5 58t34.5 46.5t47.5 30.5t53.5 11q66 0 96.5 -36.5t30.5 -87.5q0 -33 -13 -60t-34 -45.5t-48 -29t-55 -10.5q-24 0 -47 8.5t-40.5 24t-28 38.5t-10.5 52z" />
<glyph unicode="&#xd0;" horiz-adv-x="1591" d="M95 724v147h176v544l-165 18v98h263q63 0 113.5 1.5t95.5 4t86.5 4.5t86.5 2q180 0 318 -48t231 -140.5t141 -227.5t48 -310q0 -197 -61 -351.5t-167.5 -261.5t-251 -162t-310.5 -52q-72 2 -151 6.5t-176 4.5q-68 0 -135 -0.5t-135 -0.5v85l169 30v609h-176zM466 132 q62 -18 127.5 -26t140.5 -6q110 3 209.5 47t175.5 128t120.5 207.5t44.5 285.5q0 159 -39 284t-115 211t-186.5 130t-252.5 40q-38 -1 -65 -2t-51.5 -3.5t-50 -5.5t-58.5 -9v-542h257v-147h-257v-592z" />
<glyph unicode="&#xd1;" horiz-adv-x="1680" d="M110 0v85l171 30v1270l-165 17v109h356l672 -1053l138 -272v1199l-164 17v108h473v-108l-166 -17v-1385h-198q-152 235 -300 468t-300 468l-67 84l-136 261v-1166l194 -30v-85h-508zM477 1731q19 35 49.5 66.5t68 55.5t79 38.5t80.5 14.5q49 0 82 -21t60.5 -46.5 t54.5 -46.5t63 -21q29 0 55.5 9t50 23t43.5 30.5t36 32.5l52 -73q-19 -35 -49.5 -67t-68 -56t-79 -38.5t-80.5 -14.5q-33 0 -58 10t-46 25t-38.5 33t-35.5 33t-38 25t-44 10q-29 0 -56 -9t-50.5 -23t-43.5 -31t-35 -32z" />
<glyph unicode="&#xd2;" horiz-adv-x="1554" d="M86 742q4 189 61.5 334.5t154.5 245.5t225 153t273 57q156 4 281 -50.5t211.5 -155t131.5 -240.5t42 -308q-4 -189 -59.5 -337.5t-149.5 -251.5t-219.5 -158.5t-267.5 -58.5q-158 -3 -286 54t-217.5 160.5t-136.5 246t-44 309.5zM302 743q0 -86 14.5 -168.5t42.5 -156.5 t69.5 -136.5t95.5 -108t120 -71t143 -25.5q110 0 196 47.5t145.5 137.5t90.5 220t31 295q0 86 -13 167.5t-39 153.5t-65 132t-90.5 103.5t-115.5 68t-140 24.5q-113 0 -202.5 -45t-152.5 -132t-96.5 -214t-33.5 -292zM612 1808l164 112l286 -289l-83 -54q-31 9 -77 30 t-97 51t-102 68t-91 82z" />
<glyph unicode="&#xd3;" horiz-adv-x="1554" d="M86 742q4 189 61.5 334.5t154.5 245.5t225 153t273 57q156 4 281 -50.5t211.5 -155t131.5 -240.5t42 -308q-4 -189 -59.5 -337.5t-149.5 -251.5t-219.5 -158.5t-267.5 -58.5q-158 -3 -286 54t-217.5 160.5t-136.5 246t-44 309.5zM302 743q0 -86 14.5 -168.5t42.5 -156.5 t69.5 -136.5t95.5 -108t120 -71t143 -25.5q110 0 196 47.5t145.5 137.5t90.5 220t31 295q0 86 -13 167.5t-39 153.5t-65 132t-90.5 103.5t-115.5 68t-140 24.5q-113 0 -202.5 -45t-152.5 -132t-96.5 -214t-33.5 -292zM681 1631l286 289l164 -112q-41 -44 -91.5 -82 t-101.5 -68t-97 -51t-77 -30z" />
<glyph unicode="&#xd4;" horiz-adv-x="1554" d="M86 742q4 189 61.5 334.5t154.5 245.5t225 153t273 57q156 4 281 -50.5t211.5 -155t131.5 -240.5t42 -308q-4 -189 -59.5 -337.5t-149.5 -251.5t-219.5 -158.5t-267.5 -58.5q-158 -3 -286 54t-217.5 160.5t-136.5 246t-44 309.5zM302 743q0 -86 14.5 -168.5t42.5 -156.5 t69.5 -136.5t95.5 -108t120 -71t143 -25.5q110 0 196 47.5t145.5 137.5t90.5 220t31 295q0 86 -13 167.5t-39 153.5t-65 132t-90.5 103.5t-115.5 68t-140 24.5q-113 0 -202.5 -45t-152.5 -132t-96.5 -214t-33.5 -292zM430 1644l283 312h189l282 -312l-87 -46l-291 222 l-298 -222z" />
<glyph unicode="&#xd5;" horiz-adv-x="1554" d="M86 742q4 189 61.5 334.5t154.5 245.5t225 153t273 57q156 4 281 -50.5t211.5 -155t131.5 -240.5t42 -308q-4 -189 -59.5 -337.5t-149.5 -251.5t-219.5 -158.5t-267.5 -58.5q-158 -3 -286 54t-217.5 160.5t-136.5 246t-44 309.5zM302 743q0 -86 14.5 -168.5t42.5 -156.5 t69.5 -136.5t95.5 -108t120 -71t143 -25.5q110 0 196 47.5t145.5 137.5t90.5 220t31 295q0 86 -13 167.5t-39 153.5t-65 132t-90.5 103.5t-115.5 68t-140 24.5q-113 0 -202.5 -45t-152.5 -132t-96.5 -214t-33.5 -292zM417 1731q19 35 49.5 66.5t68 55.5t79 38.5t80.5 14.5 q49 0 82 -21t60.5 -46.5t54.5 -46.5t63 -21q29 0 55.5 9t50 23t43.5 30.5t36 32.5l52 -73q-19 -35 -49.5 -67t-68 -56t-79 -38.5t-80.5 -14.5q-33 0 -58 10t-46 25t-38.5 33t-35.5 33t-38 25t-44 10q-29 0 -56 -9t-50.5 -23t-43.5 -31t-35 -32z" />
<glyph unicode="&#xd6;" horiz-adv-x="1554" d="M86 742q4 189 61.5 334.5t154.5 245.5t225 153t273 57q156 4 281 -50.5t211.5 -155t131.5 -240.5t42 -308q-4 -189 -59.5 -337.5t-149.5 -251.5t-219.5 -158.5t-267.5 -58.5q-158 -3 -286 54t-217.5 160.5t-136.5 246t-44 309.5zM302 743q0 -86 14.5 -168.5t42.5 -156.5 t69.5 -136.5t95.5 -108t120 -71t143 -25.5q110 0 196 47.5t145.5 137.5t90.5 220t31 295q0 86 -13 167.5t-39 153.5t-65 132t-90.5 103.5t-115.5 68t-140 24.5q-113 0 -202.5 -45t-152.5 -132t-96.5 -214t-33.5 -292zM432 1774q0 31 13.5 58t34.5 46.5t47.5 30.5t53.5 11 q66 0 96.5 -36.5t30.5 -87.5q0 -33 -13 -60t-34 -45.5t-48 -29t-55 -10.5q-24 0 -47 8.5t-40.5 24t-28 38.5t-10.5 52zM898 1774q0 31 13.5 58t34.5 46.5t47.5 30.5t53.5 11q66 0 96.5 -36.5t30.5 -87.5q0 -33 -13 -60t-34 -45.5t-48 -29t-55 -10.5q-24 0 -47 8.5t-40.5 24 t-28 38.5t-10.5 52z" />
<glyph unicode="&#xd7;" d="M178 1133l114 116l333 -352l328 351l119 -116l-348 -334l348 -343l-113 -113l-337 353l-324 -353l-119 135l343 318z" />
<glyph unicode="&#xd8;" horiz-adv-x="1554" d="M86 742q4 189 61.5 337.5t154.5 252t225 160t273 60.5q53 2 102 -4.5t95 -19.5l53 155l83 -34l-51 -151q93 -42 165 -112.5t121.5 -163.5t74.5 -205.5t23 -238.5q-4 -189 -59.5 -337.5t-149.5 -251.5t-219.5 -158.5t-267.5 -58.5q-104 -1 -197 23l-65 -194l-88 33l65 191 q-96 42 -171 112t-126.5 162.5t-78 204.5t-23.5 238zM302 743q0 -88 15 -172t44 -159t72.5 -138t99.5 -108l423 1241q-38 19 -80 29t-89 10q-113 0 -202.5 -48t-152.5 -139t-96.5 -221t-33.5 -295zM614 115q39 -18 82 -28t91 -10q110 0 196 47.5t145.5 137.5t90.5 220 t31 295q0 87 -13.5 171.5t-40.5 160t-67.5 139t-94.5 108.5z" />
<glyph unicode="&#xd9;" horiz-adv-x="1640" d="M63 1413v98h533v-98l-179 -19v-758q0 -169 34.5 -277.5t95.5 -171.5t144 -87.5t181 -24.5q105 0 180.5 40t123.5 116t70.5 185.5t22.5 249.5l-2 728l-182 19v98h491v-98l-159 -19l-2 -727q0 -186 -42 -317.5t-118 -215.5t-182 -123t-234 -39q-170 0 -288 41t-191.5 124.5 t-106 209t-32.5 294.5q0 193 0.5 378t0.5 376zM515 1808l164 112l286 -289l-83 -54q-31 9 -77 30t-97 51t-102 68t-91 82z" />
<glyph unicode="&#xda;" horiz-adv-x="1640" d="M63 1413v98h533v-98l-179 -19v-758q0 -169 34.5 -277.5t95.5 -171.5t144 -87.5t181 -24.5q105 0 180.5 40t123.5 116t70.5 185.5t22.5 249.5l-2 728l-182 19v98h491v-98l-159 -19l-2 -727q0 -186 -42 -317.5t-118 -215.5t-182 -123t-234 -39q-170 0 -288 41t-191.5 124.5 t-106 209t-32.5 294.5q0 193 0.5 378t0.5 376zM831 1631l286 289l164 -112q-41 -44 -91.5 -82t-101.5 -68t-97 -51t-77 -30z" />
<glyph unicode="&#xdb;" horiz-adv-x="1640" d="M63 1413v98h533v-98l-179 -19v-758q0 -169 34.5 -277.5t95.5 -171.5t144 -87.5t181 -24.5q105 0 180.5 40t123.5 116t70.5 185.5t22.5 249.5l-2 728l-182 19v98h491v-98l-159 -19l-2 -727q0 -186 -42 -317.5t-118 -215.5t-182 -123t-234 -39q-170 0 -288 41t-191.5 124.5 t-106 209t-32.5 294.5q0 193 0.5 378t0.5 376zM504 1644l283 312h189l282 -312l-87 -46l-291 222l-298 -222z" />
<glyph unicode="&#xdc;" horiz-adv-x="1670" d="M80 1413v98h533v-98l-179 -19v-758q0 -169 34.5 -277.5t95.5 -171.5t144 -87.5t181 -24.5q105 0 180.5 40t123.5 116t70.5 185.5t22.5 249.5l-2 728l-182 19v98h491v-98l-159 -19l-2 -727q0 -186 -42 -317.5t-118 -215.5t-182 -123t-234 -39q-170 0 -288 41t-191.5 124.5 t-106 209t-32.5 294.5q0 193 0.5 378t0.5 376zM500 1774q0 31 13.5 58t34.5 46.5t47.5 30.5t53.5 11q66 0 96.5 -36.5t30.5 -87.5q0 -33 -13 -60t-34 -45.5t-48 -29t-55 -10.5q-24 0 -47 8.5t-40.5 24t-28 38.5t-10.5 52zM966 1774q0 31 13.5 58t34.5 46.5t47.5 30.5 t53.5 11q66 0 96.5 -36.5t30.5 -87.5q0 -33 -13 -60t-34 -45.5t-48 -29t-55 -10.5q-24 0 -47 8.5t-40.5 24t-28 38.5t-10.5 52z" />
<glyph unicode="&#xdd;" horiz-adv-x="1312" d="M-15 1413v98h503v-98l-153 -18l307 -550l42 -131l56 139l284 543l-153 17v98h456v-98l-136 -28l-436 -758v-511l214 -31v-85h-613v85l204 31v525l-450 754zM643 1631l286 289l164 -112q-41 -44 -91.5 -82t-101.5 -68t-97 -51t-77 -30z" />
<glyph unicode="&#xde;" horiz-adv-x="1304" d="M82 0v85l189 30v1301l-174 17v98h543v-98l-174 -18v-185q57 7 125 15.5t134 8.5q115 0 211 -26.5t165 -80.5t107.5 -135t38.5 -189q0 -81 -22.5 -150.5t-62.5 -125t-95 -98t-119 -71t-135.5 -42t-144.5 -11.5q-76 2 -123 2.5t-79 2.5v-215l267 -30v-85h-651zM466 438 q57 -8 105.5 -9.5t93.5 -1.5q72 0 141 16.5t123 60.5t87 120t33 196q0 77 -26.5 138.5t-77.5 104t-125.5 63.5t-170.5 17q-49 -2 -93.5 -10t-89.5 -19v-676z" />
<glyph unicode="&#xdf;" horiz-adv-x="1339" d="M67 0v86l160 31v775q0 183 45 317.5t119.5 222.5t172 131t202.5 43q57 0 113 -14.5t100.5 -49.5t71.5 -92.5t27 -143.5q0 -61 -15 -108.5t-37 -86t-48 -72t-48 -67.5t-37 -71t-15 -83q0 -52 32.5 -87.5t81.5 -65.5t106 -59t106 -68.5t81.5 -93.5t32.5 -134 q0 -88 -35 -150.5t-93.5 -102.5t-135 -59t-160.5 -19q-44 0 -102.5 2.5t-118.5 16.5v173q19 -10 47.5 -24t61 -26.5t66 -21.5t62.5 -9q42 0 82.5 8.5t72 29.5t50.5 57t19 91q0 52 -32.5 89.5t-81.5 68.5t-105.5 60t-105.5 63.5t-81.5 79t-32.5 106.5q0 34 15.5 70.5t39 75 t50.5 79.5t50.5 85t39 90t15.5 95q0 47 -8.5 83.5t-23.5 64t-34.5 46t-40.5 29.5t-43 16t-42 5q-82 0 -138.5 -29.5t-91 -98.5t-50 -182t-15.5 -280v-892h-351z" />
<glyph unicode="&#xe0;" horiz-adv-x="1108" d="M98 322q8 70 46 122.5t94 90.5t124.5 63t137 40t132.5 21t111 6v87q0 79 -21 128.5t-58 77.5t-87 38t-108 10q-59 0 -133 -19t-145 -54l-37 90q37 30 88 52t104.5 36.5t105.5 21t91 6.5q79 0 150.5 -16.5t125.5 -58t85.5 -112t31.5 -179.5l-2 -688h128v-66 q-35 -19 -86.5 -31t-103.5 -12q-18 0 -39 2.5t-38.5 12.5t-29 31t-11.5 58l1 31q-50 -57 -136.5 -96t-215.5 -39q-86 0 -147 29.5t-98.5 77.5t-52.5 110.5t-7 128.5zM152 1661l146 149l324 -416l-53 -54q-41 19 -100 54.5t-119.5 79t-114 92.5t-83.5 95zM292 318 q0 -59 18.5 -100t50.5 -66.5t75 -37t92 -11.5q30 0 61 8t59.5 20t53 27.5t39.5 30.5q0 94 0.5 186.5t1.5 186.5q-42 0 -92 -4.5t-100 -15.5t-97 -29t-83 -45.5t-57.5 -64.5t-21.5 -85z" />
<glyph unicode="&#xe1;" horiz-adv-x="1108" d="M98 322q8 70 46 122.5t94 90.5t124.5 63t137 40t132.5 21t111 6v87q0 79 -21 128.5t-58 77.5t-87 38t-108 10q-59 0 -133 -19t-145 -54l-37 90q37 30 88 52t104.5 36.5t105.5 21t91 6.5q79 0 150.5 -16.5t125.5 -58t85.5 -112t31.5 -179.5l-2 -688h128v-66 q-35 -19 -86.5 -31t-103.5 -12q-18 0 -39 2.5t-38.5 12.5t-29 31t-11.5 58l1 31q-50 -57 -136.5 -96t-215.5 -39q-86 0 -147 29.5t-98.5 77.5t-52.5 110.5t-7 128.5zM292 318q0 -59 18.5 -100t50.5 -66.5t75 -37t92 -11.5q30 0 61 8t59.5 20t53 27.5t39.5 30.5 q0 94 0.5 186.5t1.5 186.5q-42 0 -92 -4.5t-100 -15.5t-97 -29t-83 -45.5t-57.5 -64.5t-21.5 -85zM461 1394l324 416l146 -149q-20 -28 -51.5 -59.5t-68.5 -63t-78 -61.5t-80.5 -56t-75.5 -47t-63 -34z" />
<glyph unicode="&#xe2;" horiz-adv-x="1108" d="M98 322q8 70 46 122.5t94 90.5t124.5 63t137 40t132.5 21t111 6v87q0 79 -21 128.5t-58 77.5t-87 38t-108 10q-59 0 -133 -19t-145 -54l-37 90q37 30 88 52t104.5 36.5t105.5 21t91 6.5q79 0 150.5 -16.5t125.5 -58t85.5 -112t31.5 -179.5l-2 -688h128v-66 q-35 -19 -86.5 -31t-103.5 -12q-18 0 -39 2.5t-38.5 12.5t-29 31t-11.5 58l1 31q-50 -57 -136.5 -96t-215.5 -39q-86 0 -147 29.5t-98.5 77.5t-52.5 110.5t-7 128.5zM172 1381l273 394h189l272 -393l-87 -46l-281 303l-288 -304zM292 318q0 -59 18.5 -100t50.5 -66.5t75 -37 t92 -11.5q30 0 61 8t59.5 20t53 27.5t39.5 30.5q0 94 0.5 186.5t1.5 186.5q-42 0 -92 -4.5t-100 -15.5t-97 -29t-83 -45.5t-57.5 -64.5t-21.5 -85z" />
<glyph unicode="&#xe3;" horiz-adv-x="1108" d="M98 322q8 70 46 122.5t94 90.5t124.5 63t137 40t132.5 21t111 6v87q0 79 -21 128.5t-58 77.5t-87 38t-108 10q-59 0 -133 -19t-145 -54l-37 90q37 30 88 52t104.5 36.5t105.5 21t91 6.5q79 0 150.5 -16.5t125.5 -58t85.5 -112t31.5 -179.5l-2 -688h128v-66 q-35 -19 -86.5 -31t-103.5 -12q-18 0 -39 2.5t-38.5 12.5t-29 31t-11.5 58l1 31q-50 -57 -136.5 -96t-215.5 -39q-86 0 -147 29.5t-98.5 77.5t-52.5 110.5t-7 128.5zM142 1490q19 35 49.5 66.5t68 55.5t79 38.5t80.5 14.5q49 0 82 -21t60.5 -46.5t54.5 -46.5t63 -21 q29 0 55.5 9t50 23t43.5 30.5t36 32.5l52 -73q-19 -35 -49.5 -67t-68 -56t-79 -38.5t-80.5 -14.5q-33 0 -58 10t-46 25t-38.5 33t-35.5 33t-38 25t-44 10q-29 0 -56 -9t-50.5 -23t-43.5 -31t-35 -32zM292 318q0 -59 18.5 -100t50.5 -66.5t75 -37t92 -11.5q30 0 61 8t59.5 20 t53 27.5t39.5 30.5q0 94 0.5 186.5t1.5 186.5q-42 0 -92 -4.5t-100 -15.5t-97 -29t-83 -45.5t-57.5 -64.5t-21.5 -85z" />
<glyph unicode="&#xe4;" horiz-adv-x="1108" d="M98 322q8 70 46 122.5t94 90.5t124.5 63t137 40t132.5 21t111 6v87q0 79 -21 128.5t-58 77.5t-87 38t-108 10q-59 0 -133 -19t-145 -54l-37 90q37 30 88 52t104.5 36.5t105.5 21t91 6.5q79 0 150.5 -16.5t125.5 -58t85.5 -112t31.5 -179.5l-2 -688h128v-66 q-35 -19 -86.5 -31t-103.5 -12q-18 0 -39 2.5t-38.5 12.5t-29 31t-11.5 58l1 31q-50 -57 -136.5 -96t-215.5 -39q-86 0 -147 29.5t-98.5 77.5t-52.5 110.5t-7 128.5zM136 1503q0 31 13.5 58t34.5 46.5t47.5 30.5t53.5 11q66 0 96.5 -36.5t30.5 -87.5q0 -33 -13 -60 t-34 -45.5t-48 -29t-55 -10.5q-24 0 -47 8.5t-40.5 24t-28 38.5t-10.5 52zM292 318q0 -59 18.5 -100t50.5 -66.5t75 -37t92 -11.5q30 0 61 8t59.5 20t53 27.5t39.5 30.5q0 94 0.5 186.5t1.5 186.5q-42 0 -92 -4.5t-100 -15.5t-97 -29t-83 -45.5t-57.5 -64.5t-21.5 -85z M608 1503q0 31 13.5 58t34.5 46.5t47.5 30.5t53.5 11q66 0 96.5 -36.5t30.5 -87.5q0 -33 -13 -60t-34 -45.5t-48 -29t-55 -10.5q-24 0 -47 8.5t-40.5 24t-28 38.5t-10.5 52z" />
<glyph unicode="&#xe5;" horiz-adv-x="1108" d="M98 322q8 70 46 122.5t94 90.5t124.5 63t137 40t132.5 21t111 6v87q0 79 -21 128.5t-58 77.5t-87 38t-108 10q-59 0 -133 -19t-145 -54l-37 90q37 30 88 52t104.5 36.5t105.5 21t91 6.5q79 0 150.5 -16.5t125.5 -58t85.5 -112t31.5 -179.5l-2 -688h128v-66 q-35 -19 -86.5 -31t-103.5 -12q-18 0 -39 2.5t-38.5 12.5t-29 31t-11.5 58l1 31q-50 -57 -136.5 -96t-215.5 -39q-86 0 -147 29.5t-98.5 77.5t-52.5 110.5t-7 128.5zM279 1561q0 50 20 94t54.5 76.5t80 51.5t97.5 19t97.5 -19t80 -51.5t54.5 -76.5t20 -94t-20 -94 t-54.5 -76.5t-80 -51.5t-97.5 -19t-97.5 19t-80 51.5t-54.5 76.5t-20 94zM292 318q0 -59 18.5 -100t50.5 -66.5t75 -37t92 -11.5q30 0 61 8t59.5 20t53 27.5t39.5 30.5q0 94 0.5 186.5t1.5 186.5q-42 0 -92 -4.5t-100 -15.5t-97 -29t-83 -45.5t-57.5 -64.5t-21.5 -85z M398 1559q0 -28 10.5 -52t28.5 -42t42.5 -28.5t51.5 -10.5t51.5 10.5t42.5 28.5t28.5 42t10.5 52q0 27 -10.5 51t-28.5 42t-42.5 28.5t-51.5 10.5t-51.5 -10.5t-42.5 -28.5t-28.5 -42t-10.5 -51z" />
<glyph unicode="&#xe6;" horiz-adv-x="1785" d="M98 322q8 67 47 118.5t96.5 90t128 64t141 41.5t135 22.5t111.5 6.5v89q0 83 -19 133.5t-53.5 78.5t-82 37t-105.5 9q-30 0 -75.5 -9.5t-95.5 -25.5t-98 -38t-82 -46v120q30 20 76.5 42.5t102 41t117 30.5t121.5 12q57 0 108.5 -7.5t95 -26t78 -50.5t56.5 -81 q69 81 167.5 127.5t223.5 50.5q88 2 159 -25.5t121 -81.5t78.5 -132t32.5 -177q2 -63 -2.5 -109t-9.5 -82h-741v-11.5t1 -11.5q4 -121 41 -200.5t92.5 -127t122.5 -66.5t131 -19q39 0 82 5.5t83.5 14.5t75 20.5t55.5 23.5l37 -85q-29 -26 -75.5 -47.5t-101.5 -36.5 t-115 -23.5t-117 -8.5q-132 0 -225.5 48.5t-153.5 137.5q-38 -37 -83.5 -71t-101 -58.5t-123.5 -38t-152 -8.5q-70 4 -129.5 32.5t-101 75t-62 106.5t-12.5 126zM302 309q0 -59 17 -98t47 -61.5t71.5 -31.5t90.5 -9q27 0 64 10t71.5 27.5t61 42t32.5 53.5v320q-37 0 -85 -5 t-98.5 -17t-99.5 -31.5t-87 -47.5t-61.5 -65.5t-23.5 -86.5zM932 663h547q3 45 2 91t-8.5 88t-24 79.5t-44 64.5t-68 43t-96.5 16t-108.5 -21t-94 -67t-69.5 -118.5t-36 -175.5z" />
<glyph unicode="&#xe7;" horiz-adv-x="1041" d="M84 538q-1 138 41.5 249t116.5 190t174 123t215 49q42 1 85 -1.5t81 -9t69.5 -16.5t51.5 -23v-240h-95l-51 126q-16 13 -36.5 22t-42 15t-43 8.5t-39.5 2.5q-67 0 -128.5 -25t-109 -75.5t-76 -127t-29.5 -179.5q-1 -136 32 -233t86 -158.5t118 -90t128 -28.5q39 0 78 5 t74.5 13t66 19.5t51.5 23.5l34 -89q-29 -26 -71 -46t-91.5 -34t-105 -21.5t-112.5 -7.5q-112 0 -199.5 42t-147.5 117t-92 177.5t-33 222.5zM436 -506q0 26 0.5 50.5t0.5 50.5q12 -3 27.5 -5.5t31.5 -5t30.5 -3.5t23.5 -1q28 0 53 3t44.5 14.5t31 33.5t11.5 60q0 44 -38 72 t-119 28q-6 0 -13.5 -0.5l-15 -1t-13.5 -1.5t-7 -1q1 49 5.5 100.5t21.5 112.5h124q-4 -25 -5.5 -59.5t1.5 -65.5q69 0 117.5 -19t79 -48t44.5 -64t14 -68q0 -50 -18.5 -86.5t-51.5 -61.5t-78.5 -38.5t-100.5 -16.5q-44 -2 -75 -0.5t-54 5t-40 8t-32 8.5z" />
<glyph unicode="&#xe8;" horiz-adv-x="1155" d="M109 556q0 128 40.5 236t113 187t174.5 124.5t225 48.5q88 2 159 -25.5t121 -81.5t78.5 -132t32.5 -177q2 -63 -2.5 -109t-9.5 -82h-741v-11.5t1 -11.5q4 -121 41 -200t92.5 -125.5t122.5 -65t131 -18.5q39 0 82 4.5t83.5 13t75 19.5t55.5 23l37 -85q-29 -26 -75.5 -47 t-101.5 -35.5t-115 -22t-117 -7.5q-121 0 -214.5 41.5t-157.5 117t-97.5 182.5t-33.5 239zM235 1661l146 149l324 -416l-53 -54q-41 19 -100 54.5t-119.5 79t-114 92.5t-83.5 95zM302 663h547q3 51 1.5 102.5t-12.5 98t-33.5 85t-60.5 62.5q-26 17 -59 25.5t-75 8.5 q-56 0 -108.5 -21t-94 -67t-69.5 -118.5t-36 -175.5z" />
<glyph unicode="&#xe9;" horiz-adv-x="1155" d="M109 556q0 128 40.5 236t113 187t174.5 124.5t225 48.5q88 2 159 -25.5t121 -81.5t78.5 -132t32.5 -177q2 -63 -2.5 -109t-9.5 -82h-741v-11.5t1 -11.5q4 -121 41 -200t92.5 -125.5t122.5 -65t131 -18.5q39 0 82 4.5t83.5 13t75 19.5t55.5 23l37 -85q-29 -26 -75.5 -47 t-101.5 -35.5t-115 -22t-117 -7.5q-121 0 -214.5 41.5t-157.5 117t-97.5 182.5t-33.5 239zM302 663h547q3 51 1.5 102.5t-12.5 98t-33.5 85t-60.5 62.5q-26 17 -59 25.5t-75 8.5q-56 0 -108.5 -21t-94 -67t-69.5 -118.5t-36 -175.5zM544 1394l324 416l146 -149 q-20 -28 -51.5 -59.5t-68.5 -63t-78 -61.5t-80.5 -56t-75.5 -47t-63 -34z" />
<glyph unicode="&#xea;" horiz-adv-x="1155" d="M109 556q0 128 40.5 236t113 187t174.5 124.5t225 48.5q88 2 159 -25.5t121 -81.5t78.5 -132t32.5 -177q2 -63 -2.5 -109t-9.5 -82h-741v-11.5t1 -11.5q4 -121 41 -200t92.5 -125.5t122.5 -65t131 -18.5q39 0 82 4.5t83.5 13t75 19.5t55.5 23l37 -85q-29 -26 -75.5 -47 t-101.5 -35.5t-115 -22t-117 -7.5q-121 0 -214.5 41.5t-157.5 117t-97.5 182.5t-33.5 239zM255 1381l273 394h189l272 -393l-87 -46l-281 303l-288 -304zM302 663h547q3 51 1.5 102.5t-12.5 98t-33.5 85t-60.5 62.5q-26 17 -59 25.5t-75 8.5q-56 0 -108.5 -21t-94 -67 t-69.5 -118.5t-36 -175.5z" />
<glyph unicode="&#xeb;" horiz-adv-x="1155" d="M109 556q0 128 40.5 236t113 187t174.5 124.5t225 48.5q88 2 159 -25.5t121 -81.5t78.5 -132t32.5 -177q2 -63 -2.5 -109t-9.5 -82h-741v-11.5t1 -11.5q4 -121 41 -200t92.5 -125.5t122.5 -65t131 -18.5q39 0 82 4.5t83.5 13t75 19.5t55.5 23l37 -85q-29 -26 -75.5 -47 t-101.5 -35.5t-115 -22t-117 -7.5q-121 0 -214.5 41.5t-157.5 117t-97.5 182.5t-33.5 239zM219 1523q0 31 13.5 58t34.5 46.5t47.5 30.5t53.5 11q66 0 96.5 -36.5t30.5 -87.5q0 -33 -13 -60t-34 -45.5t-48 -29t-55 -10.5q-24 0 -47 8.5t-40.5 24t-28 38.5t-10.5 52zM302 663 h547q3 51 1.5 102.5t-12.5 98t-33.5 85t-60.5 62.5q-26 17 -59 25.5t-75 8.5q-56 0 -108.5 -21t-94 -67t-69.5 -118.5t-36 -175.5zM691 1523q0 31 13.5 58t34.5 46.5t47.5 30.5t53.5 11q66 0 96.5 -36.5t30.5 -87.5q0 -33 -13 -60t-34 -45.5t-48 -29t-55 -10.5 q-24 0 -47 8.5t-40.5 24t-28 38.5t-10.5 52z" />
<glyph unicode="&#xec;" horiz-adv-x="665" d="M62 1661l146 149l324 -416l-53 -54q-41 19 -100 54.5t-119.5 79t-114 92.5t-83.5 95zM99 0v85l170 21v819l-138 73v62l277 79l45 -20v-1013l162 -21v-85h-516z" />
<glyph unicode="&#xed;" horiz-adv-x="665" d="M99 0v85l170 21v819l-138 73v62l277 79l45 -20v-1013l162 -21v-85h-516zM198 1394l324 416l146 -149q-20 -28 -51.5 -59.5t-68.5 -63t-78 -61.5t-80.5 -56t-75.5 -47t-63 -34z" />
<glyph unicode="&#xee;" horiz-adv-x="665" d="M-33 1381l273 394h189l272 -393l-87 -46l-281 303l-288 -304zM99 0v85l170 21v819l-138 73v62l277 79l45 -20v-1013l162 -21v-85h-516z" />
<glyph unicode="&#xef;" horiz-adv-x="665" d="M-40 1503q0 31 13.5 58t34.5 46.5t47.5 30.5t53.5 11q66 0 96.5 -36.5t30.5 -87.5q0 -33 -13 -60t-34 -45.5t-48 -29t-55 -10.5q-24 0 -47 8.5t-40.5 24t-28 38.5t-10.5 52zM99 0v85l170 21v819l-138 73v62l277 79l45 -20v-1013l162 -21v-85h-516zM432 1503q0 31 13.5 58 t34.5 46.5t47.5 30.5t53.5 11q66 0 96.5 -36.5t30.5 -87.5q0 -33 -13 -60t-34 -45.5t-48 -29t-55 -10.5q-24 0 -47 8.5t-40.5 24t-28 38.5t-10.5 52z" />
<glyph unicode="&#xf0;" horiz-adv-x="1237" d="M103 502q0 131 45 230t121 166t175.5 100.5t209.5 33.5q81 0 141.5 -28.5t113.5 -76.5q-5 36 -24 77t-45.5 83.5t-57.5 84.5t-62 80t-59 69.5t-47 54.5l-154 -193l-103 95l168 172q-26 18 -47 32.5t-40.5 27t-40.5 24t-47 23.5v128q80 -28 145.5 -71.5t125.5 -85.5 l161 189l86 -96l-155 -161q205 -178 313 -403.5t108 -481.5q0 -125 -41 -234t-111.5 -190t-164 -128.5t-199.5 -49.5q-116 -3 -211 35.5t-162.5 109t-104.5 169t-37 215.5zM313 511q0 -85 20.5 -163.5t60.5 -138.5t100 -96t140 -36q76 0 131 33.5t91 91.5t53 135.5t17 166.5 v147q0 55 -21.5 104.5t-60 87t-91.5 59.5t-115 22q-81 0 -142 -29t-101.5 -83t-61 -130.5t-20.5 -170.5z" />
<glyph unicode="&#xf1;" horiz-adv-x="1386" d="M123 998v62l266 79l45 -20v-143q34 29 81.5 57.5t101.5 51.5t110.5 37.5t107.5 16.5q23 1 44.5 0t41.5 -4q69 -10 116 -43t76 -90t42 -140t13 -192v-565l161 -20v-85h-504v85l151 21v529q0 91 -9 159.5t-35.5 113.5t-73.5 66.5t-123 18.5q-62 -3 -131 -27.5t-145 -76.5 v-783l149 -21v-85h-479v85l136 20v815zM319 1490q19 35 49.5 66.5t68 55.5t79 38.5t80.5 14.5q49 0 82 -21t60.5 -46.5t54.5 -46.5t63 -21q29 0 55.5 9t50 23t43.5 30.5t36 32.5l52 -73q-19 -35 -49.5 -67t-68 -56t-79 -38.5t-80.5 -14.5q-33 0 -58 10t-46 25t-38.5 33 t-35.5 33t-38 25t-44 10q-29 0 -56 -9t-50.5 -23t-43.5 -31t-35 -32z" />
<glyph unicode="&#xf2;" horiz-adv-x="1237" d="M104 582q2 134 46.5 239.5t117.5 178.5t168.5 112t199.5 40q127 1 221 -44t155.5 -123.5t91.5 -184.5t29 -227q-1 -133 -42.5 -243t-112 -188.5t-165 -122t-202.5 -43.5q-138 0 -235 50t-158 134t-88.5 193.5t-25.5 228.5zM254 1661l146 149l324 -416l-53 -54 q-41 19 -100 54.5t-119.5 79t-114 92.5t-83.5 95zM309 591q0 -97 19 -187t57 -159.5t96.5 -112t138.5 -44.5q85 -2 143.5 29t95 91.5t53 150t16.5 205.5q0 101 -17.5 188.5t-55 152.5t-95 102.5t-136.5 39.5q-85 1 -144.5 -29.5t-97.5 -89.5t-55.5 -144t-17.5 -193z" />
<glyph unicode="&#xf3;" horiz-adv-x="1237" d="M104 582q2 134 46.5 239.5t117.5 178.5t168.5 112t199.5 40q127 1 221 -44t155.5 -123.5t91.5 -184.5t29 -227q-1 -133 -42.5 -243t-112 -188.5t-165 -122t-202.5 -43.5q-138 0 -235 50t-158 134t-88.5 193.5t-25.5 228.5zM309 591q0 -97 19 -187t57 -159.5t96.5 -112 t138.5 -44.5q85 -2 143.5 29t95 91.5t53 150t16.5 205.5q0 101 -17.5 188.5t-55 152.5t-95 102.5t-136.5 39.5q-85 1 -144.5 -29.5t-97.5 -89.5t-55.5 -144t-17.5 -193zM563 1394l324 416l146 -149q-20 -28 -51.5 -59.5t-68.5 -63t-78 -61.5t-80.5 -56t-75.5 -47t-63 -34z " />
<glyph unicode="&#xf4;" horiz-adv-x="1237" d="M104 582q2 134 46.5 239.5t117.5 178.5t168.5 112t199.5 40q127 1 221 -44t155.5 -123.5t91.5 -184.5t29 -227q-1 -133 -42.5 -243t-112 -188.5t-165 -122t-202.5 -43.5q-138 0 -235 50t-158 134t-88.5 193.5t-25.5 228.5zM273 1381l273 394h189l272 -393l-87 -46 l-281 303l-288 -304zM309 591q0 -97 19 -187t57 -159.5t96.5 -112t138.5 -44.5q85 -2 143.5 29t95 91.5t53 150t16.5 205.5q0 101 -17.5 188.5t-55 152.5t-95 102.5t-136.5 39.5q-85 1 -144.5 -29.5t-97.5 -89.5t-55.5 -144t-17.5 -193z" />
<glyph unicode="&#xf5;" horiz-adv-x="1237" d="M104 582q2 134 46.5 239.5t117.5 178.5t168.5 112t199.5 40q127 1 221 -44t155.5 -123.5t91.5 -184.5t29 -227q-1 -133 -42.5 -243t-112 -188.5t-165 -122t-202.5 -43.5q-138 0 -235 50t-158 134t-88.5 193.5t-25.5 228.5zM244 1490q19 35 49.5 66.5t68 55.5t79 38.5 t80.5 14.5q49 0 82 -21t60.5 -46.5t54.5 -46.5t63 -21q29 0 55.5 9t50 23t43.5 30.5t36 32.5l52 -73q-19 -35 -49.5 -67t-68 -56t-79 -38.5t-80.5 -14.5q-33 0 -58 10t-46 25t-38.5 33t-35.5 33t-38 25t-44 10q-29 0 -56 -9t-50.5 -23t-43.5 -31t-35 -32zM309 591 q0 -97 19 -187t57 -159.5t96.5 -112t138.5 -44.5q85 -2 143.5 29t95 91.5t53 150t16.5 205.5q0 101 -17.5 188.5t-55 152.5t-95 102.5t-136.5 39.5q-85 1 -144.5 -29.5t-97.5 -89.5t-55.5 -144t-17.5 -193z" />
<glyph unicode="&#xf6;" horiz-adv-x="1237" d="M104 582q2 134 46.5 239.5t117.5 178.5t168.5 112t199.5 40q127 1 221 -44t155.5 -123.5t91.5 -184.5t29 -227q-1 -133 -42.5 -243t-112 -188.5t-165 -122t-202.5 -43.5q-138 0 -235 50t-158 134t-88.5 193.5t-25.5 228.5zM238 1503q0 31 13.5 58t34.5 46.5t47.5 30.5 t53.5 11q66 0 96.5 -36.5t30.5 -87.5q0 -33 -13 -60t-34 -45.5t-48 -29t-55 -10.5q-24 0 -47 8.5t-40.5 24t-28 38.5t-10.5 52zM309 591q0 -97 19 -187t57 -159.5t96.5 -112t138.5 -44.5q85 -2 143.5 29t95 91.5t53 150t16.5 205.5q0 101 -17.5 188.5t-55 152.5t-95 102.5 t-136.5 39.5q-85 1 -144.5 -29.5t-97.5 -89.5t-55.5 -144t-17.5 -193zM710 1503q0 31 13.5 58t34.5 46.5t47.5 30.5t53.5 11q66 0 96.5 -36.5t30.5 -87.5q0 -33 -13 -60t-34 -45.5t-48 -29t-55 -10.5q-24 0 -47 8.5t-40.5 24t-28 38.5t-10.5 52z" />
<glyph unicode="&#xf7;" horiz-adv-x="1205" d="M160 727v147h885v-147h-885zM467 398q0 31 13.5 58t34.5 46.5t47.5 30.5t53.5 11q66 0 96.5 -36.5t30.5 -87.5q0 -33 -13 -60t-34 -45.5t-48 -29t-55 -10.5q-24 0 -47 8.5t-40.5 24t-28 38.5t-10.5 52zM467 1175q0 31 13.5 58t34.5 46.5t47.5 30.5t53.5 11 q66 0 96.5 -36.5t30.5 -87.5q0 -33 -13 -60t-34 -45.5t-48 -29t-55 -10.5q-24 0 -47 8.5t-40.5 24t-28 38.5t-10.5 52z" />
<glyph unicode="&#xf8;" horiz-adv-x="1237" d="M104 582q2 134 46.5 239.5t117.5 178.5t168.5 112t199.5 40q77 0 140 -16l57 167l81 -32l-55 -164q70 -33 122 -86.5t86 -123t50.5 -152t15.5 -172.5q-1 -133 -42.5 -243t-112 -188.5t-165 -122t-202.5 -43.5q-34 0 -65 3.5t-60 9.5l-62 -188l-88 33l61 182 q-79 34 -135 92t-91.5 132.5t-51.5 162t-15 179.5zM309 591q0 -65 8.5 -127.5t25.5 -118.5t42.5 -103t60.5 -81l291 860q-51 25 -113 26q-85 1 -144.5 -29.5t-97.5 -89.5t-55.5 -144t-17.5 -193zM526 108q45 -19 94 -20q85 -2 143.5 29t95 91.5t53 150t16.5 205.5 q0 128 -28 232t-88 169z" />
<glyph unicode="&#xf9;" horiz-adv-x="1271" d="M98 1007v77l257 55l35 -18v-689q0 -83 9 -142.5t33 -98t66 -57t108 -18.5q45 0 88.5 12.5t81 30t65.5 37t41 33.5v739l-125 32v82l286 57l28 -17v-1037h120v-76q-15 -8 -37 -15.5t-47.5 -13.5t-52 -10t-50.5 -4q-48 0 -75.5 20.5t-27.5 65.5v82q-87 -79 -182.5 -117 t-186.5 -38q-118 0 -184 36.5t-98.5 101t-40 152.5t-8.5 192v516zM235 1661l146 149l324 -416l-53 -54q-41 19 -100 54.5t-119.5 79t-114 92.5t-83.5 95z" />
<glyph unicode="&#xfa;" horiz-adv-x="1271" d="M98 1007v77l257 55l35 -18v-689q0 -83 9 -142.5t33 -98t66 -57t108 -18.5q45 0 88.5 12.5t81 30t65.5 37t41 33.5v739l-125 32v82l286 57l28 -17v-1037h120v-76q-15 -8 -37 -15.5t-47.5 -13.5t-52 -10t-50.5 -4q-48 0 -75.5 20.5t-27.5 65.5v82q-87 -79 -182.5 -117 t-186.5 -38q-118 0 -184 36.5t-98.5 101t-40 152.5t-8.5 192v516zM544 1394l324 416l146 -149q-20 -28 -51.5 -59.5t-68.5 -63t-78 -61.5t-80.5 -56t-75.5 -47t-63 -34z" />
<glyph unicode="&#xfb;" horiz-adv-x="1271" d="M98 1007v77l257 55l35 -18v-689q0 -83 9 -142.5t33 -98t66 -57t108 -18.5q45 0 88.5 12.5t81 30t65.5 37t41 33.5v739l-125 32v82l286 57l28 -17v-1037h120v-76q-15 -8 -37 -15.5t-47.5 -13.5t-52 -10t-50.5 -4q-48 0 -75.5 20.5t-27.5 65.5v82q-87 -79 -182.5 -117 t-186.5 -38q-118 0 -184 36.5t-98.5 101t-40 152.5t-8.5 192v516zM255 1381l273 394h189l272 -393l-87 -46l-281 303l-288 -304z" />
<glyph unicode="&#xfc;" horiz-adv-x="1271" d="M98 1007v77l257 55l35 -18v-689q0 -83 9 -142.5t33 -98t66 -57t108 -18.5q45 0 88.5 12.5t81 30t65.5 37t41 33.5v739l-125 32v82l286 57l28 -17v-1037h120v-76q-15 -8 -37 -15.5t-47.5 -13.5t-52 -10t-50.5 -4q-48 0 -75.5 20.5t-27.5 65.5v82q-87 -79 -182.5 -117 t-186.5 -38q-118 0 -184 36.5t-98.5 101t-40 152.5t-8.5 192v516zM219 1503q0 31 13.5 58t34.5 46.5t47.5 30.5t53.5 11q66 0 96.5 -36.5t30.5 -87.5q0 -33 -13 -60t-34 -45.5t-48 -29t-55 -10.5q-24 0 -47 8.5t-40.5 24t-28 38.5t-10.5 52zM691 1503q0 31 13.5 58 t34.5 46.5t47.5 30.5t53.5 11q66 0 96.5 -36.5t30.5 -87.5q0 -33 -13 -60t-34 -45.5t-48 -29t-55 -10.5q-24 0 -47 8.5t-40.5 24t-28 38.5t-10.5 52z" />
<glyph unicode="&#xfd;" horiz-adv-x="1209" d="M16 1013v106h463v-106l-144 -20l235 -671l67 -204l58 204l200 674l-156 17v106h432v-106l-112 -16q-67 -194 -117.5 -341t-87.5 -255t-63 -183t-43.5 -125t-28.5 -80.5t-19 -50.5q-39 -100 -78.5 -180t-83.5 -138.5t-94.5 -96t-112.5 -52.5q-40 -10 -88 -10q-10 0 -22 1 t-23.5 3t-20.5 5t-13 6v158q17 -5 39.5 -8t40.5 -3q36 0 78 13.5t85 51.5t83.5 107.5t73.5 180.5h-43l-401 995zM560 1394l324 416l146 -149q-20 -28 -51.5 -59.5t-68.5 -63t-78 -61.5t-80.5 -56t-75.5 -47t-63 -34z" />
<glyph unicode="&#xfe;" horiz-adv-x="1272" d="M32 1502v87l323 36l40 -17v-584q27 23 59.5 46t72 41.5t87.5 30t106 11.5q84 0 164 -29.5t142 -95t100 -169.5t38 -254q0 -128 -41 -243t-115.5 -201.5t-179 -137.5t-230.5 -51q-56 0 -108.5 5.5t-100.5 13.5l2 -93l4 -158v-145l196 -21v-85h-528v85l140 22v1870z M395 158q16 -42 77.5 -61.5t148.5 -19.5q65 0 127.5 29t112 89t80 153t32.5 221q2 120 -26.5 205t-75.5 138t-107.5 77.5t-123.5 24.5q-44 0 -81.5 -9t-68 -23t-55 -30.5t-40.5 -31.5v-762z" />
<glyph unicode="&#xff;" horiz-adv-x="1209" d="M16 1013v106h463v-106l-144 -20l235 -671l67 -204l58 204l200 674l-156 17v106h432v-106l-112 -16q-67 -194 -117.5 -341t-87.5 -255t-63 -183t-43.5 -125t-28.5 -80.5t-19 -50.5q-39 -100 -78.5 -180t-83.5 -138.5t-94.5 -96t-112.5 -52.5q-40 -10 -88 -10q-10 0 -22 1 t-23.5 3t-20.5 5t-13 6v158q17 -5 39.5 -8t40.5 -3q36 0 78 13.5t85 51.5t83.5 107.5t73.5 180.5h-43l-401 995zM235 1503q0 31 13.5 58t34.5 46.5t47.5 30.5t53.5 11q66 0 96.5 -36.5t30.5 -87.5q0 -33 -13 -60t-34 -45.5t-48 -29t-55 -10.5q-24 0 -47 8.5t-40.5 24 t-28 38.5t-10.5 52zM707 1503q0 31 13.5 58t34.5 46.5t47.5 30.5t53.5 11q66 0 96.5 -36.5t30.5 -87.5q0 -33 -13 -60t-34 -45.5t-48 -29t-55 -10.5q-24 0 -47 8.5t-40.5 24t-28 38.5t-10.5 52z" />
<glyph unicode="&#x2c6;" horiz-adv-x="1289" d="M263 1381l273 394h189l272 -393l-87 -46l-281 303l-288 -304z" />
<glyph unicode="&#x2dc;" horiz-adv-x="886" d="M56 1490q19 35 49.5 66.5t68 55.5t79 38.5t80.5 14.5q49 0 82 -21t60.5 -46.5t54.5 -46.5t63 -21q29 0 55.5 9t50 23t43.5 30.5t36 32.5l52 -73q-19 -35 -49.5 -67t-68 -56t-79 -38.5t-80.5 -14.5q-33 0 -58 10t-46 25t-38.5 33t-35.5 33t-38 25t-44 10q-29 0 -56 -9 t-50.5 -23t-43.5 -31t-35 -32z" />
<glyph unicode="&#x2000;" horiz-adv-x="989" />
<glyph unicode="&#x2001;" horiz-adv-x="1978" />
<glyph unicode="&#x2002;" horiz-adv-x="989" />
<glyph unicode="&#x2003;" horiz-adv-x="1978" />
<glyph unicode="&#x2004;" horiz-adv-x="659" />
<glyph unicode="&#x2005;" horiz-adv-x="494" />
<glyph unicode="&#x2006;" horiz-adv-x="329" />
<glyph unicode="&#x2007;" horiz-adv-x="329" />
<glyph unicode="&#x2008;" horiz-adv-x="247" />
<glyph unicode="&#x2009;" horiz-adv-x="395" />
<glyph unicode="&#x200a;" horiz-adv-x="109" />
<glyph unicode="&#x2010;" horiz-adv-x="1205" d="M160 727v147h885v-147h-885z" />
<glyph unicode="&#x2011;" horiz-adv-x="1205" d="M160 727v147h885v-147h-885z" />
<glyph unicode="&#x2012;" horiz-adv-x="1205" d="M160 727v147h885v-147h-885z" />
<glyph unicode="&#x2013;" horiz-adv-x="1084" d="M30 530v173h1024v-173h-1024z" />
<glyph unicode="&#x2014;" horiz-adv-x="2108" d="M30 530v173h2048v-173h-2048z" />
<glyph unicode="&#x2018;" horiz-adv-x="770" d="M127 1262q0 85 29 161t75 137.5t102.5 107t111.5 69.5l56 -52v-36q-31 -12 -64 -44t-60.5 -75t-45.5 -93t-18 -98q0 -38 13 -72.5t34.5 -61.5t49 -44.5t56.5 -20.5v-45l-122 -155q-59 15 -100.5 52t-67.5 83.5t-37.5 96t-11.5 90.5z" />
<glyph unicode="&#x2019;" horiz-adv-x="770" d="M269 981v36q31 12 64 44t60.5 75t45.5 93t18 98q0 38 -13 72.5t-34.5 61.5t-49 44.5t-56.5 20.5v45l122 155q59 -15 100.5 -52t67.5 -83.5t37.5 -96.5t11.5 -90q0 -85 -29 -161t-75 -137.5t-102.5 -107t-111.5 -69.5z" />
<glyph unicode="&#x201a;" horiz-adv-x="766" d="M265 -434q31 12 64 44t60.5 75t45.5 93t18 98q0 38 -13 72.5t-34.5 61.5t-49 44.5t-56.5 20.5v45l122 155q59 -15 100.5 -52t67.5 -83.5t37.5 -96.5t11.5 -90q0 -85 -29 -160.5t-75 -137.5t-102.5 -107.5t-111.5 -69.5l-56 52v36z" />
<glyph unicode="&#x201c;" horiz-adv-x="1301" d="M127 1131q0 85 29 161t75 137.5t102.5 107t111.5 69.5l56 -52v-36q-31 -12 -64 -44t-60.5 -75t-45.5 -93t-18 -98q0 -38 13 -72.5t34.5 -61.5t49 -44.5t56.5 -20.5v-45l-122 -155q-59 15 -100.5 52t-67.5 83.5t-37.5 96t-11.5 90.5zM658 1131q0 85 29 161t75 137.5 t102.5 107t111.5 69.5l56 -52v-36q-31 -12 -64 -44t-60.5 -75t-45.5 -93t-18 -98q0 -38 13 -72.5t34.5 -61.5t49 -44.5t56.5 -20.5v-45l-122 -155q-59 15 -100.5 52t-67.5 83.5t-37.5 96t-11.5 90.5z" />
<glyph unicode="&#x201d;" horiz-adv-x="1301" d="M269 981v36q31 12 64 44t60.5 75t45.5 93t18 98q0 38 -13 72.5t-34.5 61.5t-49 44.5t-56.5 20.5v45l122 155q59 -15 100.5 -52t67.5 -83.5t37.5 -96.5t11.5 -90q0 -85 -29 -161t-75 -137.5t-102.5 -107t-111.5 -69.5zM800 981v36q31 12 64 44t60.5 75t45.5 93t18 98 q0 38 -13 72.5t-34.5 61.5t-49 44.5t-56.5 20.5v45l122 155q59 -15 100.5 -52t67.5 -83.5t37.5 -96.5t11.5 -90q0 -85 -29 -161t-75 -137.5t-102.5 -107t-111.5 -69.5z" />
<glyph unicode="&#x201e;" horiz-adv-x="1301" d="M269 -434q31 12 64 44t60.5 75t45.5 93t18 98q0 38 -13 72.5t-34.5 61.5t-49 44.5t-56.5 20.5v45l122 155q59 -15 100.5 -52t67.5 -83.5t37.5 -96.5t11.5 -90q0 -85 -29 -161t-75 -137.5t-102.5 -107t-111.5 -69.5l-56 52v36zM800 -434q31 12 64 44t60.5 75t45.5 93 t18 98q0 38 -13 72.5t-34.5 61.5t-49 44.5t-56.5 20.5v45l122 155q59 -15 100.5 -52t67.5 -83.5t37.5 -96.5t11.5 -90q0 -85 -29 -161t-75 -137.5t-102.5 -107t-111.5 -69.5l-56 52v36z" />
<glyph unicode="&#x2022;" horiz-adv-x="841" d="M216 704q3 45 21.5 84t47.5 68t66.5 45.5t78.5 16.5t78 -16.5t64 -45.5t41.5 -68t11.5 -84t-21.5 -84t-47.5 -68t-66.5 -46t-78.5 -17q-42 0 -78.5 17.5t-63.5 47t-41.5 68.5t-11.5 82z" />
<glyph unicode="&#x202f;" horiz-adv-x="395" />
<glyph unicode="&#x2039;" horiz-adv-x="1189" d="M245 489v243l648 343l51 -83l-517 -369l517 -371l-51 -89z" />
<glyph unicode="&#x203a;" horiz-adv-x="1189" d="M245 246l516 369l-516 371l51 89l648 -326v-243l-648 -343z" />
<glyph unicode="&#x205f;" horiz-adv-x="494" />
<glyph unicode="&#x20ac;" horiz-adv-x="1592" d="M105 566v127h195v31q0 45 3 88t8 85h-176v127h200q32 125 92 222.5t144.5 164.5t191.5 102t233 35q72 0 134 -8.5t114 -20t94 -23.5t75 -19l-16 -290h-86l-52 167q-63 43 -142 60.5t-184 17.5q-171 0 -273 -102.5t-137 -305.5h570v-127h-585q-2 -27 -3 -54.5t-1 -56.5 v-47t2 -46h557v-127h-548q12 -104 41 -193.5t80 -155t128 -103t187 -37.5q61 0 107 6t84 18t71 31t67 45q21 87 45 174q23 0 44.5 -0.5t44.5 -0.5v-287q-36 -2 -79.5 -16t-103.5 -31t-139.5 -30.5t-186.5 -13.5q-136 0 -240 42.5t-178 120.5t-118 187.5t-60 243.5h-204z" />
<glyph unicode="&#x25fc;" horiz-adv-x="1120" d="M0 0v1120h1120v-1120h-1120z" />
<glyph unicode="&#xfb01;" horiz-adv-x="1507" d="M95 1005v76l220 59v62q0 74 18.5 139.5t50 119.5t73 96.5t87 71.5t92.5 44.5t89 15.5q68 0 100 -6t43 -11v-170q-14 8 -62.5 19.5t-120.5 11.5q-41 0 -73.5 -7t-56 -32.5t-36 -75t-12.5 -134.5v-144h302v-135h-302v-900l230 -20v-85h-623v85l201 22v898h-220zM951 0v85 l170 21v819l-138 73v62l277 79l45 -20v-1013l162 -21v-85h-516zM1046 1527q0 31 13.5 58t34.5 46.5t47.5 30.5t53.5 11q66 0 96.5 -36.5t30.5 -87.5q0 -33 -13 -60t-34 -45.5t-48 -29t-55 -10.5q-24 0 -47 8.5t-40.5 24t-28 38.5t-10.5 52z" />
<glyph unicode="&#xfb02;" horiz-adv-x="1507" d="M95 1005v76l220 59v62q0 74 18.5 139.5t50 119.5t73 96.5t87 71.5t92.5 44.5t89 15.5q68 0 100 -6t43 -11v-170q-14 8 -62.5 19.5t-120.5 11.5q-41 0 -73.5 -7t-56 -32.5t-36 -75t-12.5 -134.5v-144h302v-135h-302v-900l230 -20v-85h-623v85l201 22v898h-220zM941 0v85 l170 21v1354l-160 36v87l313 42l40 -23v-1496l178 -21v-85h-541z" />
<glyph unicode="&#xfb03;" horiz-adv-x="2349" d="M95 1005v76l220 59v62q0 74 18.5 139.5t50 119.5t73 96.5t87 71.5t92.5 44.5t89 15.5q68 0 100 -6t43 -11v-170q-14 8 -62.5 19.5t-120.5 11.5q-41 0 -73.5 -7t-56 -32.5t-36 -75t-12.5 -134.5v-144h302v-135h-302v-900l230 -20v-85h-623v85l201 22v898h-220zM937 1005 v76l220 59v62q0 74 18.5 139.5t50 119.5t73 96.5t87 71.5t92.5 44.5t89 15.5q68 0 100 -6t43 -11v-170q-14 8 -62.5 19.5t-120.5 11.5q-41 0 -73.5 -7t-56 -32.5t-36 -75t-12.5 -134.5v-144h302v-135h-302v-900l230 -20v-85h-623v85l201 22v898h-220zM1793 0v85l170 21v819 l-138 73v62l277 79l45 -20v-1013l162 -21v-85h-516zM1888 1527q0 31 13.5 58t34.5 46.5t47.5 30.5t53.5 11q66 0 96.5 -36.5t30.5 -87.5q0 -33 -13 -60t-34 -45.5t-48 -29t-55 -10.5q-24 0 -47 8.5t-40.5 24t-28 38.5t-10.5 52z" />
<glyph unicode="&#xfb04;" horiz-adv-x="2349" d="M95 1005v76l220 59v62q0 74 18.5 139.5t50 119.5t73 96.5t87 71.5t92.5 44.5t89 15.5q68 0 100 -6t43 -11v-170q-14 8 -62.5 19.5t-120.5 11.5q-41 0 -73.5 -7t-56 -32.5t-36 -75t-12.5 -134.5v-144h302v-135h-302v-900l230 -20v-85h-623v85l201 22v898h-220zM937 1005 v76l220 59v62q0 74 18.5 139.5t50 119.5t73 96.5t87 71.5t92.5 44.5t89 15.5q68 0 100 -6t43 -11v-170q-14 8 -62.5 19.5t-120.5 11.5q-41 0 -73.5 -7t-56 -32.5t-36 -75t-12.5 -134.5v-144h302v-135h-302v-900l230 -20v-85h-623v85l201 22v898h-220zM1783 0v85l170 21v1354 l-160 36v87l313 42l40 -23v-1496l178 -21v-85h-541z" />
<hkern u1="T" u2="z" k="96" />
<hkern u1="T" u2="y" k="96" />
<hkern u1="T" u2="x" k="96" />
<hkern u1="T" u2="w" k="96" />
<hkern u1="T" u2="v" k="96" />
<hkern u1="T" u2="u" k="96" />
<hkern u1="T" u2="t" k="72" />
<hkern u1="T" u2="s" k="96" />
<hkern u1="T" u2="r" k="72" />
<hkern u1="T" u2="p" k="72" />
<hkern u1="T" u2="o" k="96" />
<hkern u1="T" u2="n" k="72" />
<hkern u1="T" u2="m" k="72" />
<hkern u1="T" u2="j" k="24" />
<hkern u1="T" u2="i" k="24" />
<hkern u1="T" u2="g" k="96" />
<hkern u1="a" u2="v" k="26" />
<hkern u1="u" u2="r" k="12" />
</font>
</defs></svg> 